<?xml version="1.0" encoding="utf-8"?>
<COLLADA xmlns="http://www.collada.org/2005/11/COLLADASchema" version="1.4.1">
  <asset>
    <contributor>
      <author>Blender User</author>
      <authoring_tool>Blender 2.77.0 commit date:2016-04-05, commit time:18:12, hash:abf6f08</authoring_tool>
    </contributor>
    <created>2016-06-11T13:16:01</created>
    <modified>2016-06-11T13:16:01</modified>
    <unit name="meter" meter="1"/>
    <up_axis>Z_UP</up_axis>
  </asset>
  <library_images>
    <image id="keeper_tex_tga" name="keeper_tex_tga">
      <init_from>keeper_tex.tga</init_from>
    </image>
  </library_images>
  <library_effects>
    <effect id="cute_keeper_27_without_hair_lambert3-effect">
      <profile_COMMON>
        <newparam sid="keeper_tex_tga-surface">
          <surface type="2D">
            <init_from>keeper_tex_tga</init_from>
          </surface>
        </newparam>
        <newparam sid="keeper_tex_tga-sampler">
          <sampler2D>
            <source>keeper_tex_tga-surface</source>
          </sampler2D>
        </newparam>
        <technique sid="common">
          <phong>
            <emission>
              <color sid="emission">0 0 0 1</color>
            </emission>
            <ambient>
              <color sid="ambient">0 0 0 1</color>
            </ambient>
            <diffuse>
              <texture texture="keeper_tex_tga-sampler" texcoord="UVMap"/>
            </diffuse>
            <specular>
              <color sid="specular">0 0 0 1</color>
            </specular>
            <shininess>
              <float sid="shininess">1</float>
            </shininess>
            <transparency>
              <float sid="transparency">1</float>
            </transparency>
            <index_of_refraction>
              <float sid="index_of_refraction">1</float>
            </index_of_refraction>
          </phong>
        </technique>
      </profile_COMMON>
    </effect>
    <effect id="middle_hair_lambert4-effect">
      <profile_COMMON>
        <technique sid="common">
          <phong>
            <emission>
              <color sid="emission">0 0 0 1</color>
            </emission>
            <ambient>
              <color sid="ambient">0 0 0 1</color>
            </ambient>
            <diffuse>
              <color sid="diffuse">1 1 1 1</color>
            </diffuse>
            <specular>
              <color sid="specular">0 0 0 1</color>
            </specular>
            <shininess>
              <float sid="shininess">1</float>
            </shininess>
            <index_of_refraction>
              <float sid="index_of_refraction">1</float>
            </index_of_refraction>
          </phong>
        </technique>
      </profile_COMMON>
    </effect>
  </library_effects>
  <library_materials>
    <material id="cute_keeper_27_without_hair_lambert3-material" name="cute_keeper_27_without_hair_lambert3">
      <instance_effect url="#cute_keeper_27_without_hair_lambert3-effect"/>
    </material>
    <material id="middle_hair_lambert4-material" name="middle_hair_lambert4">
      <instance_effect url="#middle_hair_lambert4-effect"/>
    </material>
  </library_materials>
  <library_geometries>
    <geometry id="Object_1-mesh" name="Object_1">
      <mesh>
        <source id="Object_1-mesh-positions">
          <float_array id="Object_1-mesh-positions-array" count="2601">-0.310459 0.479793 -0.558315 -0.261183 0.329917 -0.445999 -0.435173 0.478633 -0.40398 -0.599882 0.889512 -0.479298 -0.310478 0.889195 -0.63151 -0.310459 0.479793 -0.558315 -0.435173 0.478633 -0.40398 -0.310576 0.594881 0.467401 -0.430949 0.588437 0.319424 -0.310654 0.444863 0.322196 -0.310654 0.444863 0.322196 -0.430949 0.588437 0.319424 -0.552773 0.478633 -0.03780698 -0.261169 0.280897 -0.04075497 -0.599882 0.889512 0.453479 -0.693961 0.88925 -0.039698 -0.552773 0.478633 -0.03780698 -0.430949 0.588437 0.319424 -0.599882 0.889512 -0.479298 -0.435173 0.478633 -0.40398 -0.552773 0.478633 -0.03780698 -0.693961 0.88925 -0.039698 -0.310478 0.889195 -0.63151 0 0.888952 -0.691916 0 0.479762 -0.664414 -0.310459 0.479793 -0.558315 -0.310459 0.479793 -0.558315 0 0.479762 -0.664414 0 0.297508 -0.512975 -0.261183 0.329917 -0.445999 0 0.4126 0.366879 -0.310654 0.444863 0.322196 -0.261169 0.280897 -0.04075497 0 0.241459 -0.03780698 0 0.594854 0.534742 -0.310576 0.594881 0.467401 -0.310654 0.444863 0.322196 0 0.4126 0.366879 -0.599882 0.889512 -0.479298 -0.599882 1.203911 -0.457238 -0.310478 1.203594 -0.60945 -0.310478 0.889195 -0.63151 -0.310478 0.889195 -0.63151 -0.310478 1.203594 -0.60945 0 1.203351 -0.669856 0 0.888952 -0.691916 0.310459 0.479793 -0.558315 0.310478 0.889195 -0.63151 0.599882 0.889512 -0.479298 0.435173 0.478633 -0.40398 0.430949 0.588437 0.319424 0.310576 0.594881 0.467401 0.310654 0.444863 0.322196 0.552773 0.478633 -0.03780698 0.430949 0.588437 0.319424 0.310654 0.444863 0.322196 0.261169 0.280897 -0.04075497 0.552773 0.478633 -0.03780698 0.261169 0.280897 -0.04075497 0.261183 0.329917 -0.445999 0.435173 0.478633 -0.40398 0.552773 0.478633 -0.03780698 0.435173 0.478633 -0.40398 0.599882 0.889512 -0.479298 0.693961 0.88925 -0.039698 0 0.479762 -0.664414 0 0.888952 -0.691916 0.310478 0.889195 -0.63151 0.310459 0.479793 -0.558315 0 0.297508 -0.512975 0 0.479762 -0.664414 0.310459 0.479793 -0.558315 0.261183 0.329917 -0.445999 0 0.241459 -0.03780698 0 0.297508 -0.512975 0.261183 0.329917 -0.445999 0.261169 0.280897 -0.04075497 0.310654 0.444863 0.322196 0.310576 0.594881 0.467401 0 0.594854 0.534742 0 0.4126 0.366879 0.310478 1.203594 -0.60945 0.599882 1.203911 -0.457238 0.599882 0.889512 -0.479298 0.310478 0.889195 -0.63151 0 1.203351 -0.669856 0.310478 1.203594 -0.60945 0.310478 0.889195 -0.63151 0 0.888952 -0.691916 -0.706479 0.496682 -0.555049 -0.706479 1.008397 -0.555049 0 1.008397 -0.718674 0 0.496682 -0.718674 0 1.008397 -0.718674 0.706479 1.008397 -0.555049 0.706479 0.496682 -0.555049 0 0.496682 -0.718674 0.623776 0.905545 -0.572243 0.736042 0.905545 0.247372 0.736042 0.511872 0.247372 0.623776 0.511872 -0.572243 0 -0.519226 0.169794 0 -0.378975 0.28331 -0.302769 -0.39277 0.202439 -0.144136 -0.555333 0.139387 -0.144137 -0.555333 -0.283349 -0.302783 -0.39277 -0.310582 0 -0.378975 -0.394499 0 -0.519226 -0.300594 0 -0.378975 0.28331 0 -0.140845 0.268204 -0.25821 -0.140319 0.185194 -0.302769 -0.39277 0.202439 -0.302783 -0.39277 -0.310582 -0.258243 -0.140319 -0.276019 0 -0.140845 -0.370789 0 -0.378975 -0.394499 0 0.03910899 0.2075099 -0.208023 0.041103 0.147388 -0.25821 -0.140319 0.185194 0 -0.140845 0.268204 -0.2080619 0.04110395 -0.247647 -0.258243 -0.140319 -0.276019 -0.358941 -0.140845 -0.131362 -0.293104 0.04158997 -0.169066 0 0.03910899 0.2075099 0 0.306505 0.128372 -0.173695 0.271745 0.03882396 -0.208023 0.041103 0.147388 -0.2080619 0.04110395 -0.247647 -0.293104 0.04158997 -0.169066 -0.280364 0.267541 -0.1402699 -0.173695 0.271745 -0.1402699 -0.144137 -0.555333 -0.283349 0 -0.519226 -0.300594 0 -0.519226 0.169794 -0.144136 -0.555333 0.139387 0 0.306505 -0.229817 -0.173695 0.271745 -0.1402699 -0.173695 0.271745 0.03882396 0 0.306505 0.128372 -0.281853 -0.722076 0.09805196 -0.239719 -0.990815 0.03419297 -0.173834 -0.990815 -0.01146697 -0.164941 -0.722062 0.05478096 -0.378959 -0.722075 -0.00129497 -0.315546 -0.990808 -0.01045197 -0.239719 -0.990815 0.03419297 -0.281853 -0.722076 0.09805196 -0.163556 -0.761323 -0.158788 -0.173694 -0.990808 -0.07747399 -0.239547 -0.990815 -0.1314409 -0.272258 -0.778394 -0.205207 -0.173695 0.271745 -0.1402699 -0.280364 0.267541 -0.1402699 -0.280364 0.267541 0.03882396 -0.173695 0.271745 0.03882396 -0.280364 0.267541 -0.1402699 -0.366003 0.274481 -0.1402699 -0.366003 0.274481 0.03882396 -0.280364 0.267541 0.03882396 -0.293104 0.04158997 -0.169066 -0.366003 0.274481 -0.1402699 -0.280364 0.267541 -0.1402699 -0.423896 -0.398346 -0.121339 -0.358941 -0.140845 -0.131362 -0.258243 -0.140319 -0.276019 -0.302783 -0.39277 -0.310582 -0.272258 -0.778394 -0.205207 -0.239547 -0.990815 -0.1314409 -0.315544 -0.990808 -0.07754397 -0.367977 -0.771227 -0.105445 -0.293104 0.04158997 -0.169066 -0.624537 0.114675 -0.126338 -0.62415 0.237864 -0.103044 -0.449151 0.251524 -0.1402699 -0.293101 0.04158699 0.07081496 -0.570568 0.114675 0.03658598 -0.624537 0.114675 -0.126338 -0.293104 0.04158997 -0.169066 -0.449151 0.251524 0.03882396 -0.570536 0.237864 0.00822097 -0.570568 0.114675 0.03658598 -0.293101 0.04158699 0.07081496 -0.62415 0.237864 -0.103044 -0.86394 0.217081 -0.07108998 -0.86394 0.217081 -0.02792894 -0.671317 0.2378669 -0.001320958 -0.671095 0.114675 0.01909995 -0.86375 0.136337 -0.01838099 -0.86375 0.136337 -0.07986795 -0.624537 0.114675 -0.126338 -0.671317 0.2378669 -0.001320958 -0.86394 0.217081 -0.02792894 -0.86375 0.136337 -0.01838099 -0.671095 0.114675 0.01909995 -0.62415 0.237864 -0.103044 -0.62415 0.237864 0.003553986 -0.570536 0.237864 0.00822097 -0.570536 0.237864 0.00822097 -0.62415 0.237864 0.003553986 -0.624537 0.114675 0.02875095 -0.570568 0.114675 0.03658598 -0.624537 0.114675 0.02875095 -0.671095 0.114675 0.01909995 -0.624537 0.114675 -0.126338 -0.62415 0.237864 0.003553986 -0.671317 0.2378669 -0.001320958 -0.671095 0.114675 0.01909995 -0.624537 0.114675 0.02875095 -0.62415 0.237864 -0.103044 -0.671317 0.2378669 -0.001320958 -0.62415 0.237864 0.003553986 -0.424567 -0.398073 0.039442 -0.360158 -0.1406 0.05430698 -0.358941 -0.140845 -0.131362 -0.423896 -0.398346 -0.121339 -0.2080619 0.04110395 -0.247647 -0.173695 0.271745 -0.1402699 0 0.306505 -0.229817 0 0.03910899 -0.310097 -0.258243 -0.140319 -0.276019 -0.2080619 0.04110395 -0.247647 0 0.03910899 -0.310097 0 -0.140845 -0.370789 -0.208023 0.041103 0.147388 -0.173695 0.271745 0.03882396 -0.280364 0.267541 0.03882396 -0.293101 0.04158699 0.07081496 -0.293101 0.04158699 0.07081496 -0.360158 -0.1406 0.05430698 -0.25821 -0.140319 0.185194 -0.208023 0.041103 0.147388 -0.293104 0.04158997 -0.169066 -0.449151 0.251524 -0.1402699 -0.366003 0.274481 -0.1402699 -0.366003 0.274481 -0.1402699 -0.449151 0.251524 -0.1402699 -0.449151 0.251524 0.03882396 -0.366003 0.274481 0.03882396 -0.366003 0.274481 0.03882396 -0.449151 0.251524 0.03882396 -0.293101 0.04158699 0.07081496 -0.163836 -0.676951 -0.212612 -0.164867 -0.722062 -0.176105 -0.281767 -0.722076 -0.224766 -0.285916 -0.657058 -0.246205 -0.302769 -0.39277 0.202439 -0.281853 -0.722076 0.09805196 -0.164941 -0.722062 0.05478096 -0.144136 -0.555333 0.139387 -0.424567 -0.398073 0.039442 -0.378959 -0.722075 -0.00129497 -0.281853 -0.722076 0.09805196 -0.302769 -0.39277 0.202439 -0.378896 -0.722075 -0.11169 -0.378959 -0.722075 -0.00129497 -0.385353 -0.674664 -0.117509 -0.285916 -0.657058 -0.246205 -0.281767 -0.722076 -0.224766 -0.378896 -0.722075 -0.11169 -0.385353 -0.674664 -0.117509 -0.302783 -0.39277 -0.310582 -0.285916 -0.657058 -0.246205 -0.385353 -0.674664 -0.117509 -0.423896 -0.398346 -0.121339 -0.144137 -0.555333 -0.283349 -0.163836 -0.676951 -0.212612 -0.285916 -0.657058 -0.246205 -0.302783 -0.39277 -0.310582 -0.144136 -0.555333 0.139387 -0.164941 -0.722062 0.05478096 -0.163836 -0.676951 -0.212612 -0.144137 -0.555333 -0.283349 -0.367977 -0.771227 -0.105445 -0.378959 -0.722075 -0.00129497 -0.378896 -0.722075 -0.11169 -0.164867 -0.722062 -0.176105 -0.163556 -0.761323 -0.158788 -0.272258 -0.778394 -0.205207 -0.281767 -0.722076 -0.224766 -0.164941 -0.722062 0.05478096 -0.163556 -0.761323 -0.158788 -0.164867 -0.722062 -0.176105 -0.890248 0.242267 -0.13292 -0.731457 0.264767 -0.183435 -0.734528 0.08625996 -0.183435 -0.891831 0.170029 -0.13292 -0.731457 0.264767 0.09089601 -0.890248 0.242267 0.04038095 -0.891831 0.170055 0.04038095 -0.734528 0.08625996 0.09089601 -0.891831 0.117078 -0.05134797 -0.734528 0.008341968 -0.05154699 -0.734528 0.08625996 0.09089601 -0.891831 0.170055 0.04038095 -0.890248 0.242267 0.04038095 -0.972066 0.271257 0.04135495 -0.972068 0.207046 0.04253 -0.891831 0.170055 0.04038095 -0.890248 0.278121 -0.05110299 -0.972056 0.308418 -0.04336798 -0.972066 0.271257 0.04135495 -0.890248 0.242267 0.04038095 -0.891831 0.170055 0.04038095 -0.972068 0.207046 0.04253 -0.972056 0.207197 -0.04354995 -0.891831 0.117078 -0.05134797 -0.890248 0.278121 -0.05110299 -0.890248 0.242267 -0.13292 -0.9721 0.271281 -0.132799 -0.972056 0.308418 -0.04336798 -0.891831 0.117078 -0.05134797 -0.972056 0.207197 -0.04354995 -0.972102 0.207059 -0.132818 -0.891831 0.170029 -0.13292 -0.891831 0.117078 -0.05134797 -0.891831 0.170029 -0.13292 -0.734528 0.08625996 -0.183435 -0.734528 0.008341968 -0.05154699 -0.972102 0.207059 -0.132818 -1.162361 0.19153 -0.113342 -0.9721 0.271281 -0.132799 -0.972056 0.308418 -0.04336798 -1.163752 0.19153 -0.05104994 -1.162361 0.19153 0.02080196 -0.972066 0.271257 0.04135495 -0.972066 0.271257 0.04135495 -1.162361 0.19153 0.02080196 -0.972068 0.207046 0.04253 -0.972068 0.207046 0.04253 -1.162361 0.19153 0.02080196 -1.163752 0.19153 -0.05104994 -0.972056 0.207197 -0.04354995 -0.972056 0.207197 -0.04354995 -1.163752 0.19153 -0.05104994 -1.162361 0.19153 -0.113342 -0.972102 0.207059 -0.132818 -0.972102 0.207059 -0.132818 -0.949814 0.217092 -0.246034 -0.911455 0.194938 -0.244047 -0.891831 0.170029 -0.13292 -0.9721 0.271281 -0.132799 -0.949814 0.217092 -0.246034 -0.972102 0.207059 -0.132818 -0.890248 0.242267 -0.13292 -0.911455 0.194938 -0.244047 -0.949814 0.217092 -0.246034 -0.9721 0.271281 -0.132799 0.302769 -0.39277 0.202439 0 -0.378975 0.28331 0 -0.519226 0.169794 0.144136 -0.555333 0.139387 0.239547 -0.990815 -0.1314409 0.315544 -0.990808 -0.07754397 0.315546 -0.990808 -0.01045197 0.239719 -0.990815 0.03419297 0.173834 -0.990815 -0.01146697 0.173694 -0.990808 -0.07747399 0.25821 -0.140319 0.185194 0 -0.140845 0.268204 0 -0.378975 0.28331 0.302769 -0.39277 0.202439 0 -0.140845 -0.370789 0.258243 -0.140319 -0.276019 0.302783 -0.39277 -0.310582 0 -0.378975 -0.394499 0.25821 -0.140319 0.185194 0.208023 0.041103 0.147388 0 0.03910899 0.2075099 0 -0.140845 0.268204 0.360158 -0.1406 0.05430698 0.358941 -0.140845 -0.131362 0.293104 0.04158997 -0.169066 0.293101 0.04158699 0.07081496 0.173695 0.271745 0.03882396 0 0.306505 0.128372 0 0.03910899 0.2075099 0.208023 0.041103 0.147388 0.280364 0.267541 -0.1402699 0.293104 0.04158997 -0.169066 0.2080619 0.04110395 -0.247647 0.173695 0.271745 -0.1402699 0 -0.519226 0.169794 0 -0.519226 -0.300594 0.144137 -0.555333 -0.283349 0.144136 -0.555333 0.139387 0.173694 -0.990808 -0.07747399 0.173834 -0.990815 -0.01146697 0.164941 -0.722062 0.05478096 0.163556 -0.761323 -0.158788 0.173834 -0.990815 -0.01146697 0.239719 -0.990815 0.03419297 0.281853 -0.722076 0.09805196 0.164941 -0.722062 0.05478096 0.239719 -0.990815 0.03419297 0.315546 -0.990808 -0.01045197 0.378959 -0.722075 -0.00129497 0.281853 -0.722076 0.09805196 0.239547 -0.990815 -0.1314409 0.173694 -0.990808 -0.07747399 0.163556 -0.761323 -0.158788 0.272258 -0.778394 -0.205207 0.366003 0.274481 0.03882396 0.280364 0.267541 0.03882396 0.293101 0.04158699 0.07081496 0.366003 0.274481 0.03882396 0.366003 0.274481 -0.1402699 0.280364 0.267541 -0.1402699 0.280364 0.267541 0.03882396 0.366003 0.274481 -0.1402699 0.293104 0.04158997 -0.169066 0.280364 0.267541 -0.1402699 0.258243 -0.140319 -0.276019 0.358941 -0.140845 -0.131362 0.423896 -0.398346 -0.121339 0.302783 -0.39277 -0.310582 0.570536 0.237864 0.00822097 0.62415 0.237864 -0.103044 0.449151 0.251524 -0.1402699 0.449151 0.251524 0.03882396 0.62415 0.237864 -0.103044 0.624537 0.114675 -0.126338 0.293104 0.04158997 -0.169066 0.449151 0.251524 -0.1402699 0.624537 0.114675 -0.126338 0.570568 0.114675 0.03658598 0.293101 0.04158699 0.07081496 0.293104 0.04158997 -0.169066 0.570568 0.114675 0.03658598 0.570536 0.237864 0.00822097 0.449151 0.251524 0.03882396 0.293101 0.04158699 0.07081496 0.86394 0.217081 -0.07108998 0.86375 0.136337 -0.07986795 0.624537 0.114675 -0.126338 0.62415 0.237864 -0.103044 0.86375 0.136337 -0.07986795 0.86375 0.136337 -0.01838099 0.671095 0.114675 0.01909995 0.624537 0.114675 -0.126338 0.86375 0.136337 -0.01838099 0.86394 0.217081 -0.02792894 0.671317 0.2378669 -0.001320958 0.671095 0.114675 0.01909995 0.62415 0.237864 0.003553986 0.62415 0.237864 -0.103044 0.570536 0.237864 0.00822097 0.624537 0.114675 0.02875095 0.570568 0.114675 0.03658598 0.624537 0.114675 -0.126338 0.671095 0.114675 0.01909995 0.624537 0.114675 0.02875095 0.624537 0.114675 -0.126338 0.671095 0.114675 0.01909995 0.671317 0.2378669 -0.001320958 0.62415 0.237864 0.003553986 0.624537 0.114675 0.02875095 0.671317 0.2378669 -0.001320958 0.62415 0.237864 -0.103044 0.62415 0.237864 0.003553986 0.378959 -0.722075 -0.00129497 0.315546 -0.990808 -0.01045197 0.315544 -0.990808 -0.07754397 0.367977 -0.771227 -0.105445 0 0.306505 -0.229817 0.173695 0.271745 -0.1402699 0.2080619 0.04110395 -0.247647 0 0.03910899 -0.310097 0 0.03910899 -0.310097 0.2080619 0.04110395 -0.247647 0.258243 -0.140319 -0.276019 0 -0.140845 -0.370789 0.280364 0.267541 0.03882396 0.173695 0.271745 0.03882396 0.208023 0.041103 0.147388 0.293101 0.04158699 0.07081496 0.360158 -0.1406 0.05430698 0.25821 -0.140319 0.185194 0.302769 -0.39277 0.202439 0.424567 -0.398073 0.039442 0.449151 0.251524 -0.1402699 0.293104 0.04158997 -0.169066 0.366003 0.274481 -0.1402699 0.449151 0.251524 0.03882396 0.449151 0.251524 -0.1402699 0.366003 0.274481 -0.1402699 0.366003 0.274481 0.03882396 0.449151 0.251524 0.03882396 0.366003 0.274481 0.03882396 0.293101 0.04158699 0.07081496 0.164867 -0.722062 -0.176105 0.164941 -0.722062 0.05478096 0.163836 -0.676951 -0.212612 0.164941 -0.722062 0.05478096 0.281853 -0.722076 0.09805196 0.302769 -0.39277 0.202439 0.144136 -0.555333 0.139387 0.281853 -0.722076 0.09805196 0.378959 -0.722075 -0.00129497 0.424567 -0.398073 0.039442 0.302769 -0.39277 0.202439 0.378959 -0.722075 -0.00129497 0.378896 -0.722075 -0.11169 0.385353 -0.674664 -0.117509 0.424567 -0.398073 0.039442 0.378959 -0.722075 -0.00129497 0.385353 -0.674664 -0.117509 0.423896 -0.398346 -0.121339 0.385353 -0.674664 -0.117509 0.285916 -0.657058 -0.246205 0.302783 -0.39277 -0.310582 0.423896 -0.398346 -0.121339 0.285916 -0.657058 -0.246205 0.163836 -0.676951 -0.212612 0.144137 -0.555333 -0.283349 0.302783 -0.39277 -0.310582 0.163836 -0.676951 -0.212612 0.164941 -0.722062 0.05478096 0.144136 -0.555333 0.139387 0.144137 -0.555333 -0.283349 0.367977 -0.771227 -0.105445 0.272258 -0.778394 -0.205207 0.281767 -0.722076 -0.224766 0.378896 -0.722075 -0.11169 0.272258 -0.778394 -0.205207 0.163556 -0.761323 -0.158788 0.164867 -0.722062 -0.176105 0.281767 -0.722076 -0.224766 0.163556 -0.761323 -0.158788 0.164941 -0.722062 0.05478096 0.164867 -0.722062 -0.176105 0.734528 0.08625996 -0.183435 0.731457 0.264767 -0.183435 0.890248 0.242267 -0.13292 0.891831 0.170029 -0.13292 0.731457 0.332786 -0.05104994 0.731457 0.264767 0.09089601 0.890248 0.242267 0.04038095 0.890248 0.278121 -0.05110299 0.734528 0.08625996 0.09089601 0.734528 0.008341968 -0.05154699 0.891831 0.117078 -0.05134797 0.891831 0.170055 0.04038095 0.972068 0.207046 0.04253 0.972066 0.271257 0.04135495 0.890248 0.242267 0.04038095 0.891831 0.170055 0.04038095 0.972066 0.271257 0.04135495 0.972056 0.308418 -0.04336798 0.890248 0.278121 -0.05110299 0.890248 0.242267 0.04038095 0.731457 0.264767 -0.183435 0.731457 0.332786 -0.05104994 0.890248 0.278121 -0.05110299 0.890248 0.242267 -0.13292 0.9721 0.271281 -0.132799 0.890248 0.242267 -0.13292 0.890248 0.278121 -0.05110299 0.972056 0.308418 -0.04336798 0.972102 0.207059 -0.132818 0.972056 0.207197 -0.04354995 0.891831 0.117078 -0.05134797 0.891831 0.170029 -0.13292 0.734528 0.08625996 -0.183435 0.891831 0.170029 -0.13292 0.891831 0.117078 -0.05134797 0.734528 0.008341968 -0.05154699 1.162361 0.19153 -0.113342 0.9721 0.271281 -0.132799 0.972056 0.308418 -0.04336798 1.163752 0.19153 -0.05104994 1.162361 0.19153 0.02080196 1.163752 0.19153 -0.05104994 0.972056 0.308418 -0.04336798 0.972066 0.271257 0.04135495 1.162361 0.19153 0.02080196 0.972066 0.271257 0.04135495 0.972068 0.207046 0.04253 1.163752 0.19153 -0.05104994 1.162361 0.19153 0.02080196 0.972068 0.207046 0.04253 0.972056 0.207197 -0.04354995 0.911455 0.194938 -0.244047 0.891831 0.170029 -0.13292 0.890248 0.242267 -0.13292 0.911455 0.194938 -0.244047 0.949814 0.217092 -0.246034 0.972102 0.207059 -0.132818 0.891831 0.170029 -0.13292 0.949814 0.217092 -0.246034 0.9721 0.271281 -0.132799 0.972102 0.207059 -0.132818 0.949814 0.217092 -0.246034 0.911455 0.194938 -0.244047 0.890248 0.242267 -0.13292 0.9721 0.271281 -0.132799 -0.928835 0.898715 -0.08160197 -0.928835 0.898715 0.04334098 -0.864188 0.799948 -0.019131 -0.928835 0.898715 -0.08160197 -1.068976 0.845926 -0.09431099 -1.068987 0.845306 0.05543798 -0.928835 0.898715 0.04334098 -1.091831 0.681352 -0.108909 -0.954495 0.598434 -0.12523 -0.954321 0.598685 0.08340001 -1.092076 0.681441 0.06573396 -1.068976 0.845926 -0.09431099 -1.091831 0.681352 -0.108909 -1.092076 0.681441 0.06573396 -1.068987 0.845306 0.05543798 -0.704981 0.567911 -0.136216 -0.515824 0.729578 -0.213824 -0.633424 0.729578 0.1523489 -0.704981 0.567911 0.09795498 -0.928835 0.898715 0.04334098 -0.982665 0.834983 -0.03552198 -0.864188 0.799948 -0.019131 -0.982665 0.834983 -0.03552198 -0.928835 0.898715 -0.08160197 -0.864188 0.799948 -0.019131 -0.982665 0.834983 -0.03552198 -0.928835 0.898715 0.04334098 -1.068987 0.845306 0.05543798 -1.022132 0.734545 -0.03532499 -0.923558 0.675178 -0.03531897 -0.954495 0.598434 -0.12523 -1.091831 0.681352 -0.108909 -0.923558 0.675178 -0.03531897 -1.022132 0.734545 -0.03532499 -1.092076 0.681441 0.06573396 -0.954321 0.598685 0.08340001 -0.982665 0.834983 -0.03552198 -1.022132 0.734545 -0.03532499 -1.091831 0.681352 -0.108909 -1.068976 0.845926 -0.09431099 -1.022132 0.734545 -0.03532499 -0.982665 0.834983 -0.03552198 -1.068987 0.845306 0.05543798 -1.092076 0.681441 0.06573396 -0.730515 0.629998 -0.03530299 -0.923558 0.675178 -0.03531897 -0.954321 0.598685 0.08340001 -0.704981 0.567911 0.09795498 -0.730515 0.629998 -0.03530299 -0.704981 0.567911 0.09795498 -0.633424 0.729578 0.1523489 -0.730515 0.629998 -0.03530299 -0.515824 0.729578 -0.213824 -0.704981 0.567911 -0.136216 -0.730515 0.629998 -0.03530299 -0.633424 0.729578 0.1523489 -0.515824 0.729578 -0.213824 0.195093 2.791591 0.283099 0.205956 2.814033 -0.246441 -0.296352 2.446269 -0.24645 -0.262185 2.437451 0.283094 1.180012 1.801758 -0.241236 1.078067 1.766919 0.367567 0.721009 0.86953 0.289179 0.882686 1.083554 -0.110186 -1.099135 1.495068 0.35829 -1.201346 1.503901 -0.2514 -0.949622 1.012628 -0.08515095 -0.835158 0.913308 0.390932 -1.225878 2.319603 0.283028 -1.256688 2.381695 -0.246562 -1.201346 1.503901 -0.2514 -1.099135 1.495068 0.35829 1.073796 2.681541 -0.24643 1.004473 2.641411 0.283106 1.078067 1.766919 0.367567 1.180012 1.801758 -0.241236 -0.178846 2.220323 -0.572052 0.1458179 2.54193 -0.642789 0.121329 1.683015 -0.807703 -0.153999 1.653205 -0.722143 -1.03615 2.004209 -0.587099 -0.504502 2.310343 -0.642789 -0.403639 1.621099 -0.809815 -0.952821 1.555944 -0.672746 -0.952821 1.555944 -0.672746 -0.403639 1.621099 -0.809815 -0.380251 1.048698 -0.671664 -0.713885 0.994769 -0.584223 -0.853895 1.512579 0.696394 -0.156815 1.617713 0.856118 -0.504484 2.310343 0.642789 -0.982067 2.12319 0.642789 -1.225878 2.319603 0.283028 -0.634381 2.570458 0.283065 -0.667079 2.602581 -0.246499 -1.256688 2.381695 -0.246562 -1.201346 1.503901 -0.2514 -0.952821 1.555944 -0.672746 -0.713885 0.994769 -0.584223 -0.949622 1.012628 -0.08515095 -1.03615 2.004209 -0.587099 -0.952821 1.555944 -0.672746 -1.201346 1.503901 -0.2514 -1.256688 2.381695 -0.246562 0.1458179 2.54193 -0.642789 -0.178846 2.220323 -0.572052 -0.296352 2.446269 -0.24645 0.205956 2.814033 -0.246441 0.783027 2.349516 -0.587099 1.073796 2.681541 -0.24643 1.180012 1.801758 -0.241236 0.789649 1.771329 -0.665397 0.789649 1.771329 -0.665397 1.180012 1.801758 -0.241236 0.882686 1.083554 -0.110186 0.632387 0.959986 -0.621106 1.078067 1.766919 0.367567 0.784526 1.701284 0.702834 0.475101 0.908577 0.670361 0.721009 0.86953 0.289179 0.1458359 2.54193 0.642789 0.195093 2.791591 0.283099 -0.262185 2.437451 0.283094 -0.1788139 2.220323 0.572731 -0.982067 2.12319 0.642789 -0.504484 2.310343 0.642789 -0.634381 2.570458 0.283065 -1.225878 2.319603 0.283028 -0.982067 2.12319 0.642789 -1.225878 2.319603 0.283028 -1.099135 1.495068 0.35829 -0.853895 1.512579 0.696394 -0.853895 1.512579 0.696394 -1.099135 1.495068 0.35829 -0.835158 0.913308 0.390932 -0.606314 0.923126 0.681098 -0.178846 2.220323 -0.572052 -0.153999 1.653205 -0.722143 -0.403639 1.621099 -0.809815 -0.504502 2.310343 -0.642789 -0.296352 2.446269 -0.24645 -0.178846 2.220323 -0.572052 -0.504502 2.310343 -0.642789 -0.667079 2.602581 -0.246499 -0.262185 2.437451 0.283094 -0.296352 2.446269 -0.24645 -0.667079 2.602581 -0.246499 -0.634381 2.570458 0.283065 -0.1788139 2.220323 0.572731 -0.262185 2.437451 0.283094 -0.634381 2.570458 0.283065 -0.504484 2.310343 0.642789 0.121329 1.683015 -0.807703 0.789649 1.771329 -0.665397 0.632387 0.959986 -0.621106 0.125946 1.014344 -0.714431 0.783027 2.349516 -0.587099 0.789649 1.771329 -0.665397 0.121329 1.683015 -0.807703 0.1458179 2.54193 -0.642789 0.783027 2.349516 -0.587099 0.1458179 2.54193 -0.642789 0.205956 2.814033 -0.246441 1.073796 2.681541 -0.24643 1.004473 2.641411 0.283106 1.073796 2.681541 -0.24643 0.205956 2.814033 -0.246441 0.195093 2.791591 0.283099 0.784526 1.701284 0.702834 0.783027 2.349516 0.642789 0.1458359 2.54193 0.642789 -0.156815 1.617713 0.856118 0.475101 0.908577 0.670361 0.784526 1.701284 0.702834 -0.156815 1.617713 0.856118 -0.02723997 0.856378 0.756694 -0.261001 0.856267 -0.550036 -0.599882 0.889512 -0.479298 -0.713885 0.994769 -0.584223 -0.380251 1.048698 -0.671664 -0.310576 0.594881 0.467401 -1.86e-4 0.594854 0.534742 -0.02723997 0.856378 0.756694 -0.606314 0.923126 0.681098 0.310576 0.594881 0.467401 0.430949 0.588437 0.319424 0.721009 0.86953 0.289179 0.475101 0.908577 0.670361 0.101617 0.876849 -0.593431 -0.149018 1.021808 -0.59258 -0.186993 1.188295 -0.71341 0.125946 1.014344 -0.714431 -0.599882 0.889512 -0.479298 -0.693961 0.88925 -0.039698 -0.949622 1.012628 -0.08515095 -0.713885 0.994769 -0.584223 0.693961 0.88925 -0.039698 0.599882 0.889512 -0.479298 0.632387 0.959986 -0.621106 0.882686 1.083554 -0.110186 -0.693961 0.88925 -0.039698 -0.430949 0.588437 0.319424 -0.835158 0.913308 0.390932 -0.949622 1.012628 -0.08515095 -0.149018 1.021808 -0.59258 -0.261001 0.856267 -0.550036 -0.380251 1.048698 -0.671664 -0.186993 1.188295 -0.71341 0.599882 0.889512 -0.479298 0.101617 0.876849 -0.593431 0.125946 1.014344 -0.714431 0.632387 0.959986 -0.621106 -1.86e-4 0.594854 0.534742 0.310576 0.594881 0.467401 0.475101 0.908577 0.670361 -0.02723997 0.856378 0.756694 1.029527 0.845306 0.05543798 1.029516 0.845926 -0.09431099 0.889375 0.898715 -0.08160197 0.889375 0.898715 0.04334098 0.914861 0.598685 0.08340001 0.915035 0.598434 -0.12523 1.052371 0.681352 -0.108909 1.052616 0.681441 0.06573396 1.052616 0.681441 0.06573396 1.052371 0.681352 -0.108909 1.029516 0.845926 -0.09431099 1.029527 0.845306 0.05543798 0.665521 0.567911 0.09795498 0.665521 0.567911 -0.136216 0.915035 0.598434 -0.12523 0.914861 0.598685 0.08340001 0.943205 0.834983 -0.03552198 0.889375 0.898715 0.04334098 0.824728 0.799948 -0.019131 0.889375 0.898715 -0.08160197 0.943205 0.834983 -0.03552198 0.824728 0.799948 -0.019131 0.889375 0.898715 0.04334098 0.943205 0.834983 -0.03552198 1.029527 0.845306 0.05543798 1.029516 0.845926 -0.09431099 0.943205 0.834983 -0.03552198 0.889375 0.898715 -0.08160197 1.052616 0.681441 0.06573396 0.982672 0.734545 -0.03532499 0.884098 0.675178 -0.03531897 0.914861 0.598685 0.08340001 1.052371 0.681352 -0.108909 0.982672 0.734545 -0.03532499 0.943205 0.834983 -0.03552198 1.029516 0.845926 -0.09431099 1.029527 0.845306 0.05543798 0.943205 0.834983 -0.03552198 0.982672 0.734545 -0.03532499 1.052616 0.681441 0.06573396 0.665521 0.567911 -0.136216 0.691055 0.629998 -0.03530299 0.884098 0.675178 -0.03531897 0.915035 0.598434 -0.12523 0.665521 0.567911 0.09795498 0.691055 0.629998 -0.03530299 0.593964 0.729578 0.1523489 0.476364 0.729578 -0.213824 0.691055 0.629998 -0.03530299 0.665521 0.567911 -0.136216 0.593964 0.729578 0.1523489 0.691055 0.629998 -0.03530299 0.476364 0.729578 -0.213824</float_array>
          <technique_common>
            <accessor source="#Object_1-mesh-positions-array" count="867" stride="3">
              <param name="X" type="float"/>
              <param name="Y" type="float"/>
              <param name="Z" type="float"/>
            </accessor>
          </technique_common>
        </source>
        <source id="Object_1-mesh-normals">
          <float_array id="Object_1-mesh-normals-array" count="1215">-0.6265486 -0.5887274 -0.5107221 0.4397881 0.3294515 0.8354929 -0.6460364 -0.5306959 0.5486338 -0.535834 -0.7944635 0.2858492 0.8292885 0.5358775 -0.1584808 0.8722056 0.4009889 0.2801171 -0.3188685 -0.1668218 -0.9330023 -0.2651075 -0.6325326 -0.7277504 -0.1420224 -0.9116902 0.3855522 -0.1575527 -0.6690092 0.7263635 0.4645447 -0.06198287 0.8833779 0.1904741 -0.06871217 0.9792845 -0.77251 0.1117917 0.6250849 0.6460364 -0.5306959 0.5486338 0.535834 -0.7944635 0.2858493 -0.5535241 0.8136395 0.1777696 -0.8722054 0.4009888 0.2801172 0.3188688 -0.1668218 -0.9330023 0.2651076 -0.6325325 -0.7277504 -0.1515015 0.9816514 0.1157919 0.1729371 -0.684961 0.7077578 -0.4645446 -0.06198281 0.8833779 -0.1904742 -0.06871217 0.9792845 0.2256338 0 0.9742123 0.2256338 0 -0.9742123 -0.990749 0 0.1357069 -0.006378352 -0.6291171 0.7772845 0.03992158 -0.5559142 -0.8302805 0.3053878 -0.06028425 -0.950318 0.2703466 -0.1772557 0.9463051 -0.2613817 0.3084771 0.9146156 -0.6487026 0.2894981 -0.7038294 -0.2450705 0.4425156 0.8626241 -0.01671242 0.4240472 -0.9054859 0.2429964 -0.9700273 -5.72808e-7 -0.1962301 0.9805579 0 0.3423013 -0.1660867 0.9247946 -0.702226 -0.1890928 0.6863837 0.4129238 -0.2413791 -0.8781971 -0.03938108 0.9992243 0 -0.08077311 -0.9967326 0 0.01019853 0.1258487 -0.991997 -0.8296408 0.1888277 -0.5253953 -0.7071537 -0.2527642 -0.6603363 -0.1170616 0.04904407 -0.991913 0.2547216 0.9670144 9.03864e-6 -0.1026465 0.07485008 0.9918978 -0.09190851 0.9948539 -0.04264551 -0.09606754 -0.9948997 -0.03075343 0.1481659 -0.1157919 -0.9821605 0 -1 0 0.08496952 -0.1999224 -0.9761205 0.1014315 -0.1625125 -0.9814792 -6.35008e-5 -1 0 0.9699939 -0.2430377 0.00667876 -0.2544229 0.4390716 -0.8616757 -0.3344253 0.2352182 -0.9125964 -0.6088058 0.4102295 0.6790193 -0.6323864 0.3217799 0.7046597 -0.03120583 0.1130248 -0.9931021 0.2661403 -0.9639343 0 0.03461205 -0.1253618 -0.9915072 0.2087014 -0.2942206 -0.9326725 0.07395327 -0.2970738 0.9519864 0.702745 0.1852848 -0.686891 -0.9908434 -0.1350154 -5.65426e-4 0.7493394 0.2500066 0.613178 0.8256443 0.1827159 0.533785 -0.08066284 -0.2407519 -0.9672291 -0.9931204 0.1160707 0.01547777 -0.9761872 -0.2169293 -5.56957e-4 0.3723407 -0.2477591 -0.8944149 -0.9994382 -0.03351438 -3.20332e-4 -0.3040025 0.006661295 -0.9526481 -0.3032289 0.005216836 0.9529035 -0.5281035 -0.7353515 0.424694 0.02650582 -5.81014e-4 0.9996485 -0.3528699 -0.8568556 -0.3758741 0.418707 0.9081199 0.001651287 0.292374 0.8831318 -0.3668729 0.705384 0.5945459 0.385939 -0.5118353 -0.7396467 -0.4369753 -0.1018577 2.97837e-4 -0.994799 -0.4981541 0.7940852 0.3482404 -0.1148889 0.01817828 0.9932121 -0.08146458 0.9966748 0.00173664 0.08150202 -0.996672 0.001498699 -0.415553 -0.900453 -0.1284527 0.9811698 -8.64629e-5 0.1931477 0.3112671 0.8796244 -0.3596855 0.1988359 -0.5169611 0.8325958 -4.92107e-5 1 7.26333e-7 -0.3053878 -0.06028425 -0.950318 -0.3428511 -0.09307247 0.9347678 0.2939919 0.2722544 0.9162131 -0.9382363 -0.345932 0.00660634 0.2450705 0.4425156 0.8626241 0.01671248 0.4240472 -0.9054859 -0.242998 -0.9700269 0 -0.9990562 -0.04338586 0.002114415 -0.5561355 -0.2162136 0.8024744 0.4880427 -0.2734771 0.8288696 -0.4129238 -0.241379 -0.8781972 0.01130884 -0.1395499 -0.9901505 -0.08077317 0.9967326 0 -0.01019859 0.1258487 -0.991997 0.8014197 0.2176656 -0.5570892 -0.07058286 -0.996926 -0.0340107 0.2181614 0.1819856 -0.9587945 -0.2064204 0.9760713 -0.06837725 0.1026465 0.07485008 0.9918978 -0.1404159 -0.1066798 0.9843286 0.09606754 -0.9948997 -0.03075343 -0.1481659 -0.1157918 -0.9821605 0 1 0 -0.1014315 -0.1625124 -0.9814792 -6.35008e-5 1 0 0.973209 -0.2298479 0.005853772 0.4828013 0.2518153 -0.8387443 0.2708319 0.3076341 -0.9121466 0.005536913 0.1404876 0.990067 0.7927159 0.1644145 0.5870005 0.03120583 0.1130248 -0.9931021 -0.2661403 -0.9639343 0 -0.03461205 -0.1253618 -0.9915072 -0.9997448 -0.0225895 3.20411e-4 -0.3081055 -0.460798 0.8323078 -0.702745 0.1852848 -0.686891 0.9908435 -0.1350148 -5.65426e-4 0.9903963 -0.1382023 -0.00389862 -0.7780582 0.1170846 0.6171845 0.08066284 -0.2407519 -0.9672291 0.9931204 0.1160707 0.01547783 0.7088047 -0.2416611 -0.6627185 -0.3723405 -0.2477589 -0.8944149 0.9994382 -0.03351396 -3.20325e-4 0.3032297 0.005216836 -0.9529032 0.3053309 0.8865886 0.3474676 0.5281033 -0.7353517 0.4246938 -0.02650582 -5.81014e-4 0.9996485 0.3528701 -0.8568556 -0.3758742 0.2619397 0.8584086 -0.4410471 -0.2923739 0.8831319 -0.3668727 -0.4188858 0.9080375 -0.001619577 0.5118353 -0.7396467 -0.4369754 0.3873167 0.9219063 -0.008648335 0.3870989 0.9220077 0.007493495 0.1148889 0.01817822 0.993212 0.08151793 0.9966706 0.001578271 -0.983696 -0.02155566 -0.1785433 0.4155529 -0.9004531 -0.1284524 -0.9811698 -8.61762e-5 0.1931477 -0.3112671 0.8796244 -0.3596857 0.836704 0.5476554 0 -0.3560987 0.9344484 0 -0.5168857 -0.8560546 -2.88477e-4 -0.9902142 0.1395547 5.05233e-4 0.9144295 -0.4047454 0 -0.2877125 -0.6393448 0.7130637 -0.05005145 -0.5570784 -0.8289503 0.3536754 -0.8307129 0.4299185 0.2902873 0.62366 -0.7257972 0.4254812 0.7065343 0.5654867 0.531937 -0.210633 -0.8201688 0.8395688 -0.08457905 0.5366291 0.08848381 0.9092718 0.4066885 -0.903453 0.2953421 0.3107182 -0.6712494 0.5433701 -0.5041559 -0.527031 0.83282 -0.1692609 -0.6114539 0.78953 0.05259901 0.9240093 -0.3580322 0.1342382 -0.9052807 -0.4032847 0.1335226 -0.9774634 -0.1354724 0.1619034 0.9832262 0.1195181 0.1377744 -0.3114352 0.2303482 -0.9219262 -0.2550301 0.135514 -0.9573901 -0.2084603 -0.2383852 -0.9485341 -0.03166753 0.0808106 0.9962264 -0.3478964 0.9285999 0.1291138 -0.7803028 -0.5182723 -0.3500306 -0.8633948 -0.05166828 -0.5018763 -0.5358001 0.7318293 -0.4211226 0.7285292 0.1001125 -0.6776597 0.8985419 -0.195611 -0.3928852 0.7387068 -0.3445251 0.5793228 -0.6364548 0.5179811 0.5715076 -0.3098021 0.7304002 0.6087186 -0.8010773 -0.116612 0.5870918 -0.7371872 -0.3250044 0.5923912 0.2738985 0.2641817 -0.9247636 0.344737 0.8174727 -0.4614053 0.33651 0.9416606 -0.006030976 0.3291422 0.7985816 0.5039176 0.1655169 -0.1351245 -0.9769061 0.1402547 0.1828365 -0.9730877 0.1019197 0.6675254 -0.7375786 0.1822472 0.9822057 0.04536622 0.1427391 0.1779909 0.9736246 0.1784033 -0.09750097 0.9791148 -0.2185168 -0.6145325 -0.7580239 -0.171552 -0.6413934 0.7477865 0.5862491 -0.6338764 0.5044926 -0.341503 -0.5861473 -0.7347157 -0.5402196 -0.8105621 -0.2261677 0.6825046 -0.7160504 -0.1464902 -0.42032 -0.9031608 -0.08735954 0.2151554 -0.5409973 -0.8130376 0.1190398 -0.8997486 -0.4198594 0.1648201 -0.6282505 0.7603523 0.3560987 0.9344484 0 0.5151035 -0.8571268 0.001460909 0.9902142 0.1395549 5.05235e-4 0.1224924 -0.9924695 0 0.2877125 -0.6393446 0.7130638 0.05005139 -0.5570783 -0.8289504 -0.3536754 -0.8307139 0.4299164 -0.3265331 -0.719214 -0.613276 -0.3474944 0.7093473 0.6132488 -0.7408103 -0.04342126 -0.6703094 -0.8395684 -0.08457928 0.5366295 -0.08263599 0.8579924 -0.5069719 0.9034528 0.2953431 0.3107182 0.6712497 0.5433703 -0.5041555 0.5270314 0.8328197 -0.1692613 0.77251 0.1117917 0.6250849 -0.7006641 -0.5790089 0.4169157 0.8717737 0.297963 -0.3888815 0.9265631 0.3195068 0.1984847 -0.1906128 -0.06582999 -0.9794557 -0.2542726 -0.6180843 -0.743853 -0.1504327 -0.9084846 0.389905 -0.1729371 -0.684961 0.7077578 0.4645446 -0.06198281 0.8833779 0.1904739 -0.06871199 0.9792847 -0.4397881 0.3294515 0.8354929 0.7006641 -0.5790088 0.4169157 -0.6595897 0.7461892 0.09023952 -0.9265631 0.319507 0.1984847 0.1906126 -0.06582999 -0.9794557 0.2542725 -0.6180843 -0.743853 -0.1469448 0.981987 0.1187802 0.1575527 -0.6690092 0.7263635 -0.4645448 -0.06198275 0.8833779 -0.1904738 -0.06871199 0.9792847 -0.1988359 -0.5169611 0.8325958 -0.2315043 -0.3762181 -0.8971431 0.2611887 -0.1115981 -0.9588151 0.3428511 -0.09307247 0.9347678 -0.2939919 0.2722544 0.9162131 -0.8082823 0.1755391 -0.5620196 -0.4826877 0.2485413 0.8397856 -0.6724262 0.1307594 -0.7285225 0.242998 -0.9700269 0 -0.1962301 0.9805579 0 0.5561355 -0.2162136 0.8024744 -0.4880427 -0.2734771 0.8288696 0.6067933 -0.289154 -0.7403998 -0.03938108 0.9992243 0 -0.08077317 -0.9967326 0 -0.8014197 0.2176656 -0.5570892 -0.5421485 -0.3489368 -0.764407 -0.2181614 0.1819856 -0.9587945 0.2064204 0.9760713 -0.06837725 -0.2615123 0.2166404 0.9405733 -0.1072873 0.9942281 0 -0.1117353 -0.993738 0 0.1710295 -0.1608245 -0.9720516 0.1400781 -0.2222071 -0.9648846 0.198998 -0.1969823 -0.9599989 0.9696581 -0.2444241 0.004461705 -0.4828013 0.2518153 -0.8387443 -0.2708319 0.3076341 -0.9121466 -0.005536913 0.1404876 0.990067 -0.7682706 0.2285976 0.597916 0.3066308 -0.6030005 -0.7364564 0.3081055 -0.460798 0.8323078 0.7749041 0.2351943 -0.5866919 0.7461423 0.1802806 0.6409139 0.7780582 0.1170846 0.6171845 0.1483759 -0.5150575 -0.8442159 -0.9871346 0.1598921 2.36039e-6 0.4137253 -0.3558022 -0.8379953 -0.3032297 0.005216836 -0.9529032 -0.3040028 0.006663739 0.9526479 -0.5181653 -0.7503554 0.410453 0.01838171 0.0182923 0.9996637 -0.3169982 -0.8830317 -0.346074 0.6787014 0.6359697 -0.3672971 0.3082854 0.8713042 -0.3818236 0.4188858 0.9080375 -0.001619577 -0.5278746 -0.7123912 -0.4624363 -0.3870989 0.9220077 0.007493495 -0.08151793 0.9966706 0.001578271 0.08138602 -0.996681 0.001817524 -0.4860239 -0.8569292 -0.1716195 0.4700408 0.7761667 -0.4202702 0.006378352 -0.6291171 0.7772845 0 1 -1.28549e-4 0 1 1.05037e-4 -4.97246e-5 1 6.98088e-5 -0.2611886 -0.1115981 -0.9588151 -0.2703466 -0.1772557 0.9463051 0.2613817 0.3084771 0.9146156 -0.9406225 -0.3394545 -1.5934e-5 0.4826877 0.2485413 0.8397857 0.6724262 0.1307594 -0.7285225 -0.2429964 -0.9700273 -5.72808e-7 -0.9992541 -0.03630787 0.01315474 -0.3423013 -0.1660867 0.9247946 0.702226 -0.1890928 0.6863837 -0.6067932 -0.2891539 -0.7403999 -0.08077311 0.9967326 0 0.8296408 0.1888277 -0.5253953 -0.1118285 -0.9937276 0 0.1170616 0.04904407 -0.991913 -0.2547216 0.9670144 9.03864e-6 0.2615124 0.2166403 0.9405735 -0.1714121 -0.1835688 0.9679465 0.1117354 -0.9937381 0 -0.1710295 -0.1608246 -0.9720516 -0.198998 -0.1969825 -0.9599988 0.9726538 -0.2322599 -2.85306e-5 0.2544229 0.4390716 -0.8616757 0.3344253 0.2352182 -0.9125964 0.6088058 0.4102295 0.6790193 0.7764615 0.1783367 0.6044036 -0.07395327 -0.2970738 0.9519864 -0.7749041 0.2351943 -0.5866917 0.9902744 -0.1391103 -0.002267718 -0.8256443 0.1827159 0.533785 -0.1483758 -0.5150573 -0.844216 0.9871346 0.1598921 2.34905e-6 0.7150046 -0.3340211 -0.6141648 -0.4137256 -0.3558024 -0.8379951 0.3040025 0.006661295 -0.9526481 0.2563883 0.8716643 0.4176918 0.5181652 -0.7503554 0.410453 -0.01838177 0.0182923 0.9996638 0.3169981 -0.8830319 -0.3460739 0.3005998 0.8735538 -0.3828101 -0.3082854 0.8713041 -0.3818238 -0.705384 0.5945459 0.385939 0.5278745 -0.7123913 -0.4624361 0.480459 0.8100423 -0.3361411 0.4981541 0.7940852 0.3482404 0.08146458 0.9966748 0.00173664 0.486024 -0.8569291 -0.1716195 -0.4700408 0.7761665 -0.4202703 -0.3528087 0.9356876 0.003849267 -0.515104 -0.8571264 0.001460909 -0.9904755 0.1376821 -0.001459538 0.6843647 -0.6952247 0.2197901 0.3818519 0.6339656 -0.6725153 0.3474947 0.7093473 0.6132487 0.7408109 -0.0434218 -0.6703087 0.6836344 -0.2673023 0.6791123 0.1878361 0.8027781 0.5659195 -0.5905982 0.8066641 0.02207154 0.9110531 -0.377061 0.1667554 -0.8996238 -0.4119417 0.1448484 -0.9967233 -0.06311845 0.05058598 0.9804934 0.09891903 0.1698459 -0.3805091 0.1848263 -0.9061194 -0.2153491 0.2001104 -0.9558141 -0.2101714 -0.237483 -0.9483827 -0.2445107 0.1712234 0.9544093 -0.3892025 0.917698 0.07969874 -0.7648853 -0.4047255 -0.5011466 -0.8563863 -0.06123834 -0.5126914 -0.6325588 0.5104511 -0.5825024 0.7169092 0.08246517 -0.6922721 0.6896114 -0.3961099 -0.6062452 0.7788544 -0.3259685 0.5358456 -0.5552306 0.7169271 0.4215859 -0.2842139 0.7252655 0.6270666 -0.8451918 -0.08170658 0.5281806 -0.7609141 -0.3133909 0.5681515 0.2906985 0.2566805 -0.9217427 0.327767 0.8274697 -0.4559199 0.3883126 0.9209759 0.03188914 0.2936496 0.8218314 0.4882245 0.2193693 -0.09552425 -0.9709543 0.1894294 0.1338954 -0.9727222 0.2825604 0.7702798 -0.5716894 0.150247 0.9841458 0.09424996 0.02786052 0.09226214 0.9953449 0.1689811 -0.106101 0.9798919 -0.05798584 -0.7356019 -0.6749278 -0.1614977 -0.6482315 0.74412 0.6378612 -0.6072404 0.4737007 -0.3370725 -0.6021476 -0.7237405 -0.4197657 -0.9031221 -0.09037244 0.7049701 -0.6861698 -0.1794106 -0.6354452 -0.7540413 -0.1662264 0.2548955 -0.3988175 -0.8808932 0.06551939 -0.66573 -0.7433107 0.1955763 -0.6029722 0.7734174 0.3528087 0.9356876 0.003849387 0.5168852 -0.8560548 -2.89008e-4 0.9904752 0.1376831 -0.001459598 0.1213682 -0.9926068 0.001296043 -0.4254816 0.706534 0.5654867 -0.531937 -0.210633 -0.8201688 -0.6836342 -0.2673023 0.6791125 -0.1686366 0.7203048 -0.6728468</float_array>
          <technique_common>
            <accessor source="#Object_1-mesh-normals-array" count="405" stride="3">
              <param name="X" type="float"/>
              <param name="Y" type="float"/>
              <param name="Z" type="float"/>
            </accessor>
          </technique_common>
        </source>
        <source id="Object_1-mesh-map">
          <float_array id="Object_1-mesh-map-array" count="2478">0.1657577 0.409751 0.1773416 0.344843 0.2353527 0.401221 0.2353527 0.401221 0.1570746 0.5625249 0.2890308 0.560333 0.4933378 0.18322 0.4662118 0.256595 0.4158168 0.204105 0.4158168 0.204105 0.3524687 0.344862 0.2808977 0.251765 0.4662118 0.256595 0.4491128 0.47456 0.5962458 0.33279 0.2890308 0.560333 0.3524687 0.344862 0.2353527 0.401221 0.1570746 0.5625249 0.04306364 0.384758 0.1657577 0.409751 0.1657577 0.409751 0.08781671 0.296381 0.1773416 0.344843 0.3794787 0.09172791 0.2808977 0.251765 0.2259817 0.169806 0.4933378 0.18322 0.3794787 0.09172791 0.4712398 0.06103193 0.2890308 0.560333 0.1577447 0.6914389 0.2940407 0.6919919 0.1570746 0.5625249 0.02499175 0.6890509 0.1577447 0.6914389 0.2353527 0.401221 0.1570746 0.5625249 0.1657577 0.409751 0.4662118 0.256595 0.4933378 0.18322 0.4158168 0.204105 0.3524687 0.344862 0.4158168 0.204105 0.2808977 0.251765 0.2353527 0.401221 0.2808977 0.251765 0.3524687 0.344862 0.3524687 0.344862 0.2890308 0.560333 0.2353527 0.401221 0.04306364 0.384758 0.1570746 0.5625249 0.1657577 0.409751 0.08781671 0.296381 0.1657577 0.409751 0.1773416 0.344843 0.2259817 0.169806 0.1773416 0.344843 0.08781671 0.296381 0.4933378 0.18322 0.3794787 0.09172791 0.4158168 0.204105 0.1577447 0.6914389 0.2890308 0.560333 0.2940407 0.6919919 0.02499175 0.6890509 0.1570746 0.5625249 0.1577447 0.6914389 0.2127047 0.7215819 0.01849889 0.992047 0.2127047 0.992047 0.01849889 0.992047 0.2127047 0.7215819 0.01849889 0.7215819 0.9868736 0.410529 0.8345578 0.7276449 0.8345578 0.410529 0.7816777 0.858567 0.8795067 0.798891 0.8584097 0.8598529 0.8210467 0.390486 0.7146278 0.358225 0.7844088 0.337333 0.7816777 0.858567 0.7010417 0.728226 0.6817647 0.840762 0.7146278 0.358225 0.6709328 0.5110669 0.7769258 0.47881 0.6205077 0.7276319 0.6817647 0.840762 0.6032537 0.8181419 0.6709328 0.5110669 0.6083167 0.577426 0.5921457 0.530386 0.6032537 0.8181419 0.5140047 0.703061 0.6205077 0.7276319 0.5921457 0.530386 0.5188487 0.627855 0.4856237 0.588169 0.7844088 0.337333 0.9821918 0.304955 0.8210467 0.390486 0.4445167 0.50382 0.4232777 0.649745 0.3380628 0.6260389 0.5915177 0.253791 0.5252957 0.168452 0.5690837 0.1472769 0.6243827 0.2464799 0.5690837 0.1472769 0.6225188 0.1399539 0.7613037 0.1921019 0.6861087 0.25825 0.7160018 0.1720479 0.5188487 0.627855 0.4232777 0.649745 0.4856237 0.588169 0.4891387 0.934096 0.4128597 0.934783 0.4238098 0.965863 0.3326957 0.988711 0.4128597 0.934783 0.4238098 0.965863 0.6920418 0.582497 0.7769258 0.47881 0.8050047 0.5716339 0.7160018 0.1720479 0.6504648 0.2490869 0.6624887 0.16004 0.3272537 0.847062 0.3966597 0.9052199 0.3326957 0.988711 0.3326957 0.988711 0.2583647 0.862818 0.2337387 0.979931 0.4586418 0.8761209 0.4719527 0.806374 0.5613308 0.8750559 0.3491178 0.7402259 0.4063857 0.8006179 0.3775297 0.834849 0.2693527 0.82256 0.3168247 0.7472919 0.3272537 0.847062 0.4063857 0.8006179 0.3924687 0.7137539 0.3655038 0.733099 0.3775297 0.834849 0.4285678 0.835447 0.4166007 0.816574 0.4285678 0.835447 0.4592297 0.788237 0.4166007 0.816574 0.2636618 0.841143 0.2693527 0.82256 0.3272537 0.847062 0.4166007 0.816574 0.4477698 0.772383 0.4063857 0.8006179 0.3775297 0.834849 0.4166007 0.816574 0.4063857 0.8006179 0.8135877 0.640391 0.6920418 0.582497 0.7027878 0.6594169 0.4856237 0.588169 0.5519617 0.446411 0.5921457 0.530386 0.5921457 0.530386 0.6220747 0.404062 0.6709328 0.5110669 0.5140047 0.703061 0.6230908 0.679103 0.6205077 0.7276319 0.6230908 0.679103 0.7010417 0.728226 0.6205077 0.7276319 0.3326957 0.988711 0.3966597 0.9052199 0.4128597 0.934783 0.4708748 0.905541 0.3966597 0.9052199 0.4128597 0.934783 0.4708748 0.905541 0.5613308 0.8750559 0.4586418 0.8761209 0.7748897 0.1511949 0.7226398 0.1486039 0.7311947 0.123273 0.5690837 0.1472769 0.4961317 0.102221 0.5302957 0.01870894 0.6089428 0.01358598 0.5690837 0.1472769 0.6225188 0.1399539 0.6649578 0.1405879 0.6225188 0.1399539 0.6675747 0.1221449 0.6675747 0.1221449 0.7226398 0.1486039 0.7311947 0.123273 0.6710718 0.01492291 0.7311947 0.123273 0.7574618 0.02079194 0.7993627 0.09861791 0.7311947 0.123273 0.7574618 0.02079194 0.9037917 0.2377619 0.7748897 0.1511949 0.8275867 0.251421 0.6624887 0.16004 0.6225188 0.1399539 0.6649578 0.1405879 0.7687137 0.175287 0.7160018 0.1720479 0.7226398 0.1486039 0.8275867 0.251421 0.7687137 0.175287 0.7613037 0.1921019 0.2373597 0.0161249 0.2658818 0.08732891 0.2347167 0.09060895 0.1427887 0.01739293 0.1227236 0.07669395 0.1142457 0.01270598 0.07119274 0.07568192 0.1142457 0.01270598 0.1227236 0.07669395 0.1506726 0.07708394 0.1333407 0.1078779 0.1227236 0.07669395 0.1917086 0.08353394 0.1543977 0.1088179 0.1824557 0.112805 0.1227236 0.07669395 0.07589268 0.1149119 0.1047607 0.1126049 0.1917086 0.08353394 0.2141327 0.1259459 0.1824557 0.112805 0.0427227 0.0890339 0.07589268 0.1149119 0.07119274 0.07568192 0.07119274 0.07568192 0.01924276 0.03371894 0.06507873 0.01451998 0.2239707 0.149764 0.1733517 0.1902229 0.2141327 0.1259459 0.1554347 0.1818969 0.1543977 0.1088179 0.1824557 0.112805 0.1543977 0.1088179 0.1324347 0.171661 0.1333407 0.1078779 0.07589268 0.1149119 0.1033077 0.1767959 0.1047607 0.1126049 0.07589268 0.1149119 0.05884277 0.181055 0.04612469 0.118129 0.04612469 0.118129 0.006894588 0.1025539 0.0427227 0.0890339 0.2141327 0.1259459 0.2239707 0.149764 0.2635248 0.137408 0.2347167 0.09060895 0.2635248 0.137408 0.2141327 0.1259459 0.7816777 0.858567 0.8795067 0.798891 0.8086947 0.7279129 0.7134677 0.30543 0.6569938 0.307213 0.6563428 0.280471 0.7010417 0.728226 0.7816777 0.858567 0.6817647 0.840762 0.7146278 0.358225 0.6709328 0.5110669 0.6220747 0.404062 0.6205077 0.7276319 0.6817647 0.840762 0.7010417 0.728226 0.6230908 0.679103 0.6920418 0.582497 0.7027878 0.6594169 0.5140047 0.703061 0.6032537 0.8181419 0.6205077 0.7276319 0.5188487 0.627855 0.5921457 0.530386 0.4856237 0.588169 0.7844088 0.337333 0.9821918 0.304955 0.9637187 0.2421599 0.7303997 0.299154 0.7613037 0.1921019 0.7128807 0.279119 0.5915177 0.253791 0.5252957 0.168452 0.5640777 0.268118 0.6243827 0.2464799 0.5690837 0.1472769 0.5915177 0.253791 0.6861087 0.25825 0.7613037 0.1921019 0.7160018 0.1720479 0.4708748 0.905541 0.5613308 0.8750559 0.4891387 0.934096 0.4128597 0.934783 0.4891387 0.934096 0.4708748 0.905541 0.4128597 0.934783 0.3326957 0.988711 0.4238098 0.965863 0.6920418 0.582497 0.7769258 0.47881 0.6709328 0.5110669 0.4285678 0.835447 0.3966597 0.9052199 0.3775297 0.834849 0.3272537 0.847062 0.3966597 0.9052199 0.3775297 0.834849 0.3326957 0.988711 0.2583647 0.862818 0.3272537 0.847062 0.4719527 0.806374 0.4586418 0.8761209 0.5613308 0.8750559 0.3775297 0.834849 0.3168247 0.7472919 0.3491178 0.7402259 0.3168247 0.7472919 0.2693527 0.82256 0.3272537 0.847062 0.3924687 0.7137539 0.4063857 0.8006179 0.3655038 0.733099 0.4166007 0.816574 0.4285678 0.835447 0.3775297 0.834849 0.2636618 0.841143 0.3272537 0.847062 0.2583647 0.862818 0.2693527 0.82256 0.3272537 0.847062 0.2636618 0.841143 0.4477698 0.772383 0.4166007 0.816574 0.4063857 0.8006179 0.4063857 0.8006179 0.3775297 0.834849 0.4166007 0.816574 0.6243827 0.2464799 0.6624887 0.16004 0.6225188 0.1399539 0.4856237 0.588169 0.5519617 0.446411 0.4445167 0.50382 0.5921457 0.530386 0.6220747 0.404062 0.5519617 0.446411 0.5140047 0.703061 0.6230908 0.679103 0.5273807 0.659429 0.7027878 0.6594169 0.8086947 0.7279129 0.8135877 0.640391 0.3966597 0.9052199 0.3326957 0.988711 0.4128597 0.934783 0.4708748 0.905541 0.3966597 0.9052199 0.4586418 0.8761209 0.4586418 0.8761209 0.5613308 0.8750559 0.4708748 0.905541 0.7687137 0.175287 0.8275867 0.251421 0.7748897 0.1511949 0.5690837 0.1472769 0.4961317 0.102221 0.5252957 0.168452 0.5690837 0.1472769 0.6089428 0.01358598 0.6225188 0.1399539 0.6225188 0.1399539 0.6649578 0.1405879 0.6675747 0.1221449 0.6089428 0.01358598 0.6675747 0.1221449 0.6710718 0.01492291 0.6710718 0.01492291 0.7311947 0.123273 0.6675747 0.1221449 0.7311947 0.123273 0.7993627 0.09861791 0.7574618 0.02079194 0.7748897 0.1511949 0.9037917 0.2377619 0.8275867 0.251421 0.7160018 0.1720479 0.6649578 0.1405879 0.6624887 0.16004 0.7160018 0.1720479 0.7687137 0.175287 0.7226398 0.1486039 0.7613037 0.1921019 0.7687137 0.175287 0.8275867 0.251421 0.2373597 0.0161249 0.2658818 0.08732891 0.3075347 0.0266239 0.1911327 0.01664096 0.1506726 0.07708394 0.1917086 0.08353394 0.1142457 0.01270598 0.07119274 0.07568192 0.1227236 0.07669395 0.1333407 0.1078779 0.1506726 0.07708394 0.1227236 0.07669395 0.1543977 0.1088179 0.1917086 0.08353394 0.1824557 0.112805 0.1911327 0.01664096 0.2347167 0.09060895 0.2373597 0.0161249 0.2141327 0.1259459 0.1917086 0.08353394 0.1824557 0.112805 0.0427227 0.0890339 0.07589268 0.1149119 0.04612469 0.118129 0.01924276 0.03371894 0.07119274 0.07568192 0.06507873 0.01451998 0.2141327 0.1259459 0.1554347 0.1818969 0.1733517 0.1902229 0.1554347 0.1818969 0.1543977 0.1088179 0.1324347 0.171661 0.1324347 0.171661 0.1543977 0.1088179 0.1333407 0.1078779 0.07589268 0.1149119 0.1033077 0.1767959 0.0796287 0.1794829 0.2722098 0.124592 0.2658818 0.08732891 0.2347167 0.09060895 0.006894588 0.1025539 0.04612469 0.118129 0.0427227 0.0890339 0.2635248 0.137408 0.2239707 0.149764 0.2141327 0.1259459 0.2635248 0.137408 0.2347167 0.09060895 0.2141327 0.1259459 0.132719 -0.768863 0.02242696 -0.768863 0.074045 -0.790026 0.132719 -0.768863 0.02242696 -0.663279 0.02242696 -0.768863 0.132721 -0.478732 0.02242696 -0.573354 0.132721 -0.573354 0.132719 -0.663279 0.02242696 -0.573354 0.02242696 -0.663279 0.132721 -0.356327 0.02242898 -0.250508 0.02242898 -0.356327 0.02242696 -0.768863 0.07415097 -0.715353 0.074045 -0.790026 0.07415097 -0.715353 0.132719 -0.768863 0.074045 -0.790026 0.07415097 -0.715353 0.02242696 -0.768863 0.02242696 -0.663279 0.07414895 -0.573696 0.132721 -0.478732 0.132721 -0.573354 0.07414895 -0.573696 0.02242898 -0.478732 0.07414698 -0.47884 0.07414895 -0.573696 0.132719 -0.663279 0.07415097 -0.715353 0.07414895 -0.573696 0.02242696 -0.663279 0.02242696 -0.573354 0.07414698 -0.356086 0.02242898 -0.478732 0.02242898 -0.356327 0.07414698 -0.356086 0.02242898 -0.356327 0.02242898 -0.250508 0.07414698 -0.356086 0.132724 -0.250508 0.132721 -0.356327 0.07414698 -0.356086 0.02242898 -0.250508 0.132724 -0.250508 0.61346 -0.493162 0.522095 -0.395923 0.513541 -0.505132 0.79111 -0.654614 0.91673 -0.797374 0.91673 -0.595337 0.265785 -0.708139 0.152207 -0.761618 0.2283329 -0.813604 0.337006 -0.600912 0.163909 -0.644691 0.265785 -0.708139 0.732589 -0.522327 0.91673 -0.595337 0.787523 -0.428986 0.544247 -0.317211 0.5992 -0.200932 0.536272 -0.195756 0.322386 -0.388134 0.415906 -0.258661 0.300491 -0.294656 0.415906 -0.258661 0.292085 -0.165971 0.300491 -0.294656 0.326037 -0.747921 0.44557 -0.653262 0.368335 -0.660812 0.337006 -0.600912 0.417208 -0.492919 0.28465 -0.502761 0.196208 -0.317533 0.292085 -0.165971 0.1612139 -0.1776739 0.322386 -0.388134 0.196208 -0.317533 0.28465 -0.502761 0.617339 -0.351299 0.522095 -0.395923 0.619575 -0.421179 0.717833 -0.333944 0.853643 -0.240758 0.731396 -0.225133 0.731396 -0.225133 0.834233 -0.06342995 0.718108 -0.07025396 0.716421 -0.692143 0.816512 -0.855891 0.79111 -0.654614 0.601951 -0.556958 0.513541 -0.505132 0.517893 -0.585533 0.368335 -0.660812 0.431849 -0.579147 0.337006 -0.600912 0.368335 -0.660812 0.265785 -0.708139 0.326037 -0.747921 0.326037 -0.747921 0.2283329 -0.813604 0.281574 -0.847954 0.507846 -0.383329 0.415906 -0.258661 0.435081 -0.400282 0.494291 -0.474244 0.435081 -0.400282 0.417208 -0.492919 0.494291 -0.474244 0.431849 -0.579147 0.507709 -0.591029 0.507709 -0.591029 0.44557 -0.653262 0.507846 -0.675799 0.5992 -0.200932 0.718108 -0.07025396 0.616609 -0.06285899 0.717833 -0.333944 0.5992 -0.200932 0.617339 -0.351299 0.717833 -0.333944 0.619575 -0.421179 0.787523 -0.428986 0.732589 -0.522327 0.619575 -0.421179 0.61346 -0.493162 0.716421 -0.692143 0.601951 -0.556958 0.511895 -0.7469 0.715874 -0.864439 0.511895 -0.7469 0.607019 -0.924685 0.286663 -0.123885 0.363976 -0.139584 0.359566 -0.07903701 0.235822 -0.935601 0.348135 -0.951022 0.281574 -0.847954 0.789663 -0.952517 0.715874 -0.864439 0.740101 -0.95894 0.553058 -0.03802597 0.616609 -0.06285899 0.620443 -0.02056097 0.286663 -0.123885 0.1612139 -0.1776739 0.292085 -0.165971 0.729839 -0.04125899 0.834233 -0.06342995 0.818408 -0.006296992 0.145131 -0.819355 0.2283329 -0.813604 0.152207 -0.761618 0.404688 -0.09869098 0.363976 -0.139584 0.420413 -0.146559 0.620443 -0.02056097 0.718108 -0.07025396 0.729839 -0.04125899 0.740101 -0.95894 0.607019 -0.924685 0.664126 -0.996363 0.02242696 -0.663279 0.132719 -0.768863 0.02242696 -0.768863 0.132721 -0.478732 0.02242696 -0.573354 0.02242898 -0.478732 0.02242696 -0.573354 0.132719 -0.663279 0.02242696 -0.663279 0.132721 -0.356327 0.02242898 -0.478732 0.02242898 -0.356327 0.07415097 -0.715353 0.02242696 -0.768863 0.074045 -0.790026 0.132719 -0.768863 0.07415097 -0.715353 0.074045 -0.790026 0.02242696 -0.768863 0.07415097 -0.715353 0.02242696 -0.663279 0.132719 -0.663279 0.07415097 -0.715353 0.132719 -0.768863 0.07414895 -0.573696 0.02242898 -0.478732 0.02242696 -0.573354 0.07414895 -0.573696 0.132719 -0.663279 0.132721 -0.573354 0.02242696 -0.663279 0.07414895 -0.573696 0.02242696 -0.573354 0.07414698 -0.356086 0.132721 -0.478732 0.132721 -0.356327 0.02242898 -0.356327 0.07414698 -0.356086 0.02242898 -0.250508 0.132724 -0.250508 0.07414698 -0.356086 0.132721 -0.356327 0.02242898 -0.250508 0.07414698 -0.356086 0.132724 -0.250508 0.2353527 0.401221 0.1657577 0.409751 0.1570746 0.5625249 0.4158168 0.204105 0.4662118 0.256595 0.3524687 0.344862 0.4662118 0.256595 0.3524687 0.344862 0.4491128 0.47456 0.2890308 0.560333 0.4491128 0.47456 0.3524687 0.344862 0.1570746 0.5625249 0.02550172 0.556822 0.04306364 0.384758 0.1657577 0.409751 0.04306364 0.384758 0.08781671 0.296381 0.3794787 0.09172791 0.4158168 0.204105 0.2808977 0.251765 0.4933378 0.18322 0.4158168 0.204105 0.3794787 0.09172791 0.2890308 0.560333 0.1570746 0.5625249 0.1577447 0.6914389 0.1570746 0.5625249 0.02550172 0.556822 0.02499175 0.6890509 0.2353527 0.401221 0.2890308 0.560333 0.1570746 0.5625249 0.3524687 0.344862 0.4662118 0.256595 0.4158168 0.204105 0.2353527 0.401221 0.1773416 0.344843 0.2808977 0.251765 0.3524687 0.344862 0.4491128 0.47456 0.2890308 0.560333 0.04306364 0.384758 0.02550172 0.556822 0.1570746 0.5625249 0.08781671 0.296381 0.04306364 0.384758 0.1657577 0.409751 0.2259817 0.169806 0.2808977 0.251765 0.1773416 0.344843 0.4933378 0.18322 0.4712398 0.06103193 0.3794787 0.09172791 0.1577447 0.6914389 0.1570746 0.5625249 0.2890308 0.560333 0.02499175 0.6890509 0.02550172 0.556822 0.1570746 0.5625249 0.2127047 0.7215819 0.01849889 0.7215819 0.01849889 0.992047 0.01849889 0.992047 0.2127047 0.992047 0.2127047 0.7215819 0.9868736 0.410529 0.9868736 0.7276449 0.8345578 0.7276449 0.7816777 0.858567 0.8086947 0.7279129 0.8795067 0.798891 0.8210467 0.390486 0.7769258 0.47881 0.7146278 0.358225 0.7816777 0.858567 0.8086947 0.7279129 0.7010417 0.728226 0.7146278 0.358225 0.6220747 0.404062 0.6709328 0.5110669 0.6205077 0.7276319 0.7010417 0.728226 0.6817647 0.840762 0.6709328 0.5110669 0.6920418 0.582497 0.6083167 0.577426 0.6032537 0.8181419 0.4883528 0.784367 0.5140047 0.703061 0.5921457 0.530386 0.6083167 0.577426 0.5188487 0.627855 0.7844088 0.337333 0.9637187 0.2421599 0.9821918 0.304955 0.4445167 0.50382 0.4856237 0.588169 0.4232777 0.649745 0.5915177 0.253791 0.5640777 0.268118 0.5252957 0.168452 0.6243827 0.2464799 0.5915177 0.253791 0.5690837 0.1472769 0.7613037 0.1921019 0.7128807 0.279119 0.6861087 0.25825 0.5188487 0.627855 0.4579598 0.6860399 0.4232777 0.649745 0.4891387 0.934096 0.4708748 0.905541 0.4128597 0.934783 0.6920418 0.582497 0.6709328 0.5110669 0.7769258 0.47881 0.7160018 0.1720479 0.6861087 0.25825 0.6504648 0.2490869 0.3272537 0.847062 0.3775297 0.834849 0.3966597 0.9052199 0.3326957 0.988711 0.3272537 0.847062 0.2583647 0.862818 0.4586418 0.8761209 0.4285678 0.835447 0.4719527 0.806374 0.3491178 0.7402259 0.3655038 0.733099 0.4063857 0.8006179 0.2693527 0.82256 0.2918997 0.74506 0.3168247 0.7472919 0.4063857 0.8006179 0.4477698 0.772383 0.3924687 0.7137539 0.4285678 0.835447 0.4719527 0.806374 0.4592297 0.788237 0.4166007 0.816574 0.4592297 0.788237 0.4477698 0.772383 0.8135877 0.640391 0.8050047 0.5716339 0.6920418 0.582497 0.4856237 0.588169 0.4445167 0.50382 0.5519617 0.446411 0.5921457 0.530386 0.5519617 0.446411 0.6220747 0.404062 0.5140047 0.703061 0.5273807 0.659429 0.6230908 0.679103 0.6230908 0.679103 0.7027878 0.6594169 0.7010417 0.728226 0.4708748 0.905541 0.4586418 0.8761209 0.3966597 0.9052199 0.7748897 0.1511949 0.7687137 0.175287 0.7226398 0.1486039 0.5690837 0.1472769 0.5252957 0.168452 0.4961317 0.102221 0.6089428 0.01358598 0.5302957 0.01870894 0.5690837 0.1472769 0.6675747 0.1221449 0.6649578 0.1405879 0.7226398 0.1486039 0.6710718 0.01492291 0.6675747 0.1221449 0.7311947 0.123273 0.7993627 0.09861791 0.7748897 0.1511949 0.7311947 0.123273 0.9037917 0.2377619 0.7993627 0.09861791 0.7748897 0.1511949 0.7687137 0.175287 0.7613037 0.1921019 0.7160018 0.1720479 0.2373597 0.0161249 0.3075347 0.0266239 0.2658818 0.08732891 0.1427887 0.01739293 0.1506726 0.07708394 0.1227236 0.07669395 0.07119274 0.07568192 0.06507873 0.01451998 0.1142457 0.01270598 0.1506726 0.07708394 0.1543977 0.1088179 0.1333407 0.1078779 0.1917086 0.08353394 0.1506726 0.07708394 0.1543977 0.1088179 0.1227236 0.07669395 0.07119274 0.07568192 0.07589268 0.1149119 0.1917086 0.08353394 0.2347167 0.09060895 0.2141327 0.1259459 0.0427227 0.0890339 0.04612469 0.118129 0.07589268 0.1149119 0.07119274 0.07568192 0.0427227 0.0890339 0.01924276 0.03371894 0.1554347 0.1818969 0.1324347 0.171661 0.1543977 0.1088179 0.07589268 0.1149119 0.0796287 0.1794829 0.1033077 0.1767959 0.07589268 0.1149119 0.0796287 0.1794829 0.05884277 0.181055 0.04612469 0.118129 0.007754802 0.117222 0.006894588 0.1025539 0.2347167 0.09060895 0.2722098 0.124592 0.2635248 0.137408 0.7816777 0.858567 0.8584097 0.8598529 0.8795067 0.798891 0.6563428 0.280471 0.6861087 0.25825 0.7128807 0.279119 0.7128807 0.279119 0.7134677 0.30543 0.6563428 0.280471 0.6876507 0.32427 0.6569938 0.307213 0.7134677 0.30543 0.7010417 0.728226 0.8086947 0.7279129 0.7816777 0.858567 0.7146278 0.358225 0.7769258 0.47881 0.6709328 0.5110669 0.6205077 0.7276319 0.6032537 0.8181419 0.6817647 0.840762 0.6230908 0.679103 0.6083167 0.577426 0.6920418 0.582497 0.5140047 0.703061 0.4883528 0.784367 0.6032537 0.8181419 0.5188487 0.627855 0.6083167 0.577426 0.5921457 0.530386 0.7844088 0.337333 0.8210467 0.390486 0.9821918 0.304955 0.7303997 0.299154 0.8275867 0.251421 0.7613037 0.1921019 0.5915177 0.253791 0.5690837 0.1472769 0.5252957 0.168452 0.6243827 0.2464799 0.6225188 0.1399539 0.5690837 0.1472769 0.6861087 0.25825 0.7128807 0.279119 0.7613037 0.1921019 0.4128597 0.934783 0.4238098 0.965863 0.4891387 0.934096 0.6920418 0.582497 0.8050047 0.5716339 0.7769258 0.47881 0.4285678 0.835447 0.4586418 0.8761209 0.3966597 0.9052199 0.3272537 0.847062 0.3326957 0.988711 0.3966597 0.9052199 0.3326957 0.988711 0.2337387 0.979931 0.2583647 0.862818 0.4719527 0.806374 0.4285678 0.835447 0.4586418 0.8761209 0.3775297 0.834849 0.3272537 0.847062 0.3168247 0.7472919 0.3168247 0.7472919 0.2918997 0.74506 0.2693527 0.82256 0.3924687 0.7137539 0.4477698 0.772383 0.4063857 0.8006179 0.4477698 0.772383 0.4592297 0.788237 0.4166007 0.816574 0.6243827 0.2464799 0.6502557 0.2469179 0.6624887 0.16004 0.4856237 0.588169 0.5921457 0.530386 0.5519617 0.446411 0.5921457 0.530386 0.6709328 0.5110669 0.6220747 0.404062 0.5140047 0.703061 0.6205077 0.7276319 0.6230908 0.679103 0.7027878 0.6594169 0.7010417 0.728226 0.8086947 0.7279129 0.4708748 0.905541 0.4128597 0.934783 0.3966597 0.9052199 0.5690837 0.1472769 0.5302957 0.01870894 0.4961317 0.102221 0.5690837 0.1472769 0.5302957 0.01870894 0.6089428 0.01358598 0.6089428 0.01358598 0.6225188 0.1399539 0.6675747 0.1221449 0.6710718 0.01492291 0.7574618 0.02079194 0.7311947 0.123273 0.7311947 0.123273 0.7748897 0.1511949 0.7993627 0.09861791 0.7748897 0.1511949 0.7993627 0.09861791 0.9037917 0.2377619 0.7160018 0.1720479 0.7226398 0.1486039 0.6649578 0.1405879 0.7160018 0.1720479 0.7613037 0.1921019 0.7687137 0.175287 0.2373597 0.0161249 0.2347167 0.09060895 0.2658818 0.08732891 0.1911327 0.01664096 0.1427887 0.01739293 0.1506726 0.07708394 0.1142457 0.01270598 0.06507873 0.01451998 0.07119274 0.07568192 0.1333407 0.1078779 0.1543977 0.1088179 0.1506726 0.07708394 0.1543977 0.1088179 0.1506726 0.07708394 0.1917086 0.08353394 0.1911327 0.01664096 0.1917086 0.08353394 0.2347167 0.09060895 0.2141327 0.1259459 0.2347167 0.09060895 0.1917086 0.08353394 0.0427227 0.0890339 0.07119274 0.07568192 0.07589268 0.1149119 0.01924276 0.03371894 0.0427227 0.0890339 0.07119274 0.07568192 0.2141327 0.1259459 0.1824557 0.112805 0.1554347 0.1818969 0.1554347 0.1818969 0.1824557 0.112805 0.1543977 0.1088179 0.07589268 0.1149119 0.1047607 0.1126049 0.1033077 0.1767959 0.006894588 0.1025539 0.007754802 0.117222 0.04612469 0.118129 0.2635248 0.137408 0.2722098 0.124592 0.2347167 0.09060895 0.132719 -0.768863 0.132719 -0.663279 0.02242696 -0.663279 0.132721 -0.478732 0.02242898 -0.478732 0.02242696 -0.573354 0.132719 -0.663279 0.132721 -0.573354 0.02242696 -0.573354 0.132721 -0.356327 0.132724 -0.250508 0.02242898 -0.250508 0.07414895 -0.573696 0.07414698 -0.47884 0.132721 -0.478732 0.07414895 -0.573696 0.02242696 -0.573354 0.02242898 -0.478732 0.07414895 -0.573696 0.132721 -0.573354 0.132719 -0.663279 0.07414895 -0.573696 0.07415097 -0.715353 0.02242696 -0.663279 0.07414698 -0.356086 0.07414698 -0.47884 0.02242898 -0.478732 0.61346 -0.493162 0.619575 -0.421179 0.522095 -0.395923 0.79111 -0.654614 0.816512 -0.855891 0.91673 -0.797374 0.265785 -0.708139 0.163909 -0.644691 0.152207 -0.761618 0.337006 -0.600912 0.28465 -0.502761 0.163909 -0.644691 0.732589 -0.522327 0.79111 -0.654614 0.91673 -0.595337 0.544247 -0.317211 0.617339 -0.351299 0.5992 -0.200932 0.322386 -0.388134 0.435081 -0.400282 0.415906 -0.258661 0.415906 -0.258661 0.363976 -0.139584 0.292085 -0.165971 0.326037 -0.747921 0.454364 -0.813717 0.44557 -0.653262 0.337006 -0.600912 0.431849 -0.579147 0.417208 -0.492919 0.196208 -0.317533 0.300491 -0.294656 0.292085 -0.165971 0.322386 -0.388134 0.300491 -0.294656 0.196208 -0.317533 0.617339 -0.351299 0.544247 -0.317211 0.522095 -0.395923 0.717833 -0.333944 0.787523 -0.428986 0.853643 -0.240758 0.731396 -0.225133 0.853643 -0.240758 0.834233 -0.06342995 0.716421 -0.692143 0.715874 -0.864439 0.816512 -0.855891 0.601951 -0.556958 0.61346 -0.493162 0.513541 -0.505132 0.368335 -0.660812 0.44557 -0.653262 0.431849 -0.579147 0.368335 -0.660812 0.337006 -0.600912 0.265785 -0.708139 0.326037 -0.747921 0.265785 -0.708139 0.2283329 -0.813604 0.507846 -0.383329 0.47868 -0.243312 0.415906 -0.258661 0.494291 -0.474244 0.507846 -0.383329 0.435081 -0.400282 0.494291 -0.474244 0.417208 -0.492919 0.431849 -0.579147 0.507709 -0.591029 0.431849 -0.579147 0.44557 -0.653262 0.5992 -0.200932 0.731396 -0.225133 0.718108 -0.07025396 0.717833 -0.333944 0.731396 -0.225133 0.5992 -0.200932 0.717833 -0.333944 0.617339 -0.351299 0.619575 -0.421179 0.732589 -0.522327 0.787523 -0.428986 0.619575 -0.421179 0.716421 -0.692143 0.688449 -0.587228 0.601951 -0.556958 0.715874 -0.864439 0.716421 -0.692143 0.511895 -0.7469 0.286663 -0.123885 0.292085 -0.165971 0.363976 -0.139584 0.235822 -0.935601 0.27895 -0.996363 0.348135 -0.951022 0.789663 -0.952517 0.816512 -0.855891 0.715874 -0.864439 0.553058 -0.03802597 0.538854 -0.08660095 0.616609 -0.06285899 0.286663 -0.123885 0.176072 -0.1024399 0.1612139 -0.1776739 0.729839 -0.04125899 0.718108 -0.07025396 0.834233 -0.06342995 0.145131 -0.819355 0.2021369 -0.91191 0.2283329 -0.813604 0.404688 -0.09869098 0.359566 -0.07903701 0.363976 -0.139584 0.620443 -0.02056097 0.616609 -0.06285899 0.718108 -0.07025396 0.740101 -0.95894 0.715874 -0.864439 0.607019 -0.924685 0.02242696 -0.663279 0.132719 -0.663279 0.132719 -0.768863 0.132721 -0.478732 0.132721 -0.573354 0.02242696 -0.573354 0.02242696 -0.573354 0.132721 -0.573354 0.132719 -0.663279 0.132721 -0.356327 0.132721 -0.478732 0.02242898 -0.478732 0.07414895 -0.573696 0.07414698 -0.47884 0.02242898 -0.478732 0.07414895 -0.573696 0.07415097 -0.715353 0.132719 -0.663279 0.02242696 -0.663279 0.07415097 -0.715353 0.07414895 -0.573696 0.07414698 -0.356086 0.07414698 -0.47884 0.132721 -0.478732</float_array>
          <technique_common>
            <accessor source="#Object_1-mesh-map-array" count="1239" stride="2">
              <param name="S" type="float"/>
              <param name="T" type="float"/>
            </accessor>
          </technique_common>
        </source>
        <vertices id="Object_1-mesh-vertices">
          <input semantic="POSITION" source="#Object_1-mesh-positions"/>
        </vertices>
        <polylist material="cute_keeper_27_without_hair_lambert3-material" count="285">
          <input semantic="VERTEX" source="#Object_1-mesh-vertices" offset="0"/>
          <input semantic="NORMAL" source="#Object_1-mesh-normals" offset="1"/>
          <input semantic="TEXCOORD" source="#Object_1-mesh-map" offset="2" set="0"/>
          <vcount>3 3 3 3 3 3 3 3 3 3 3 3 3 3 3 3 3 3 3 3 3 3 3 3 3 3 3 3 3 3 3 3 3 3 3 3 3 3 3 3 3 3 3 3 3 3 3 3 3 3 3 3 3 3 3 3 3 3 3 3 3 3 3 3 3 3 3 3 3 3 3 3 3 3 3 3 3 3 3 3 3 3 3 3 3 3 3 3 3 3 3 3 3 3 3 3 3 3 3 3 3 3 3 3 3 3 3 3 3 3 3 3 3 3 3 3 3 3 3 3 3 3 3 3 3 3 3 3 3 3 3 3 3 3 3 3 3 3 3 3 3 3 3 3 3 3 3 3 3 3 3 3 3 3 3 3 3 3 3 3 3 3 3 3 3 3 3 3 3 3 3 3 3 3 3 3 3 3 3 3 3 3 3 3 3 3 3 3 3 3 3 3 3 3 3 3 3 3 3 3 3 3 3 3 3 3 3 3 3 3 3 3 3 3 3 3 3 3 3 3 3 3 3 3 3 3 3 3 3 3 3 3 3 3 3 3 3 3 3 3 3 3 3 3 3 3 3 3 3 3 3 3 3 3 3 3 3 3 3 3 3 3 3 3 3 3 3 3 3 3 3 3 3 3 3 3 3 3 3 3 3 3 3 3 3 </vcount>
          <p>0 0 0 1 0 1 2 0 2 6 1 3 4 1 4 3 1 5 7 2 6 8 2 7 9 2 8 10 3 9 12 3 10 13 3 11 17 4 12 15 4 13 14 4 14 18 5 15 20 5 16 19 5 17 22 6 18 24 6 19 25 6 20 26 7 21 28 7 22 29 7 23 30 8 24 32 8 25 33 8 26 35 9 27 37 9 28 34 9 29 38 10 30 40 10 31 39 10 32 42 11 33 44 11 34 43 11 35 49 12 36 47 12 37 46 12 38 50 13 39 51 13 40 52 13 41 53 14 42 55 14 43 56 14 44 60 15 45 58 15 46 57 15 47 61 16 48 63 16 49 62 16 50 65 17 51 67 17 52 68 17 53 69 18 54 71 18 55 72 18 56 73 19 57 75 19 58 74 19 59 78 20 60 80 20 61 77 20 62 81 21 63 83 21 64 82 21 65 85 22 66 87 22 67 86 22 68 92 23 69 90 23 70 89 23 71 94 24 72 96 24 73 93 24 74 100 25 75 98 25 76 97 25 77 102 26 78 104 26 79 101 26 80 105 27 81 107 27 82 108 27 83 109 28 84 111 28 85 110 28 86 116 29 87 114 29 88 113 29 89 118 30 90 120 30 91 117 30 92 122 31 93 124 31 94 121 31 95 125 32 96 127 32 97 128 32 98 129 33 99 131 33 100 132 33 101 134 34 102 136 34 103 133 34 104 137 35 105 139 35 106 140 35 107 142 36 108 144 36 109 141 36 110 146 37 111 148 37 112 145 37 113 149 38 114 151 38 115 152 38 116 154 39 117 156 39 118 153 39 119 160 40 120 158 40 121 157 40 122 161 41 123 162 41 124 163 41 125 165 42 126 167 42 127 164 42 128 168 43 129 170 43 130 171 43 131 173 44 132 175 44 133 172 44 134 179 45 135 177 45 136 176 45 137 180 46 138 182 46 139 183 46 140 185 47 141 187 47 142 184 47 143 188 48 144 190 48 145 191 48 146 192 49 147 194 49 148 193 49 149 196 50 150 198 50 151 197 50 152 199 51 153 201 51 154 200 51 155 203 50 156 204 50 157 205 50 158 206 52 159 208 52 160 207 52 161 210 53 162 212 53 163 211 53 164 213 54 165 215 54 166 214 54 167 218 55 168 220 55 169 217 55 170 222 56 171 224 56 172 221 56 173 226 57 174 228 57 175 225 57 176 229 58 177 231 58 178 232 58 179 233 59 180 234 59 181 235 59 182 239 60 183 237 60 184 236 60 185 240 61 186 242 61 187 241 61 188 243 62 189 245 62 190 246 62 191 248 63 192 250 63 193 247 63 194 251 64 195 253 64 196 252 64 197 255 65 198 256 65 199 257 65 200 261 66 201 259 66 202 258 66 203 265 67 204 263 67 205 262 67 206 266 68 207 268 68 208 269 68 209 270 69 210 272 69 211 271 69 212 274 70 213 275 70 214 276 70 215 277 71 216 279 71 217 280 71 218 281 72 219 283 72 220 282 72 221 285 73 222 287 73 223 284 73 224 288 74 225 290 74 226 291 74 227 292 75 228 294 75 229 295 75 230 296 76 231 298 76 232 299 76 233 300 77 234 302 77 235 301 77 236 304 78 237 306 78 238 305 78 239 308 79 240 310 79 241 311 79 242 315 80 243 313 80 244 312 80 245 316 81 246 318 81 247 319 81 248 320 82 249 321 82 250 322 82 251 324 83 252 326 83 253 323 83 254 327 84 255 328 84 256 329 84 257 333 85 258 331 85 259 330 85 260 334 86 261 336 86 262 337 86 263 338 87 264 340 87 265 341 87 266 342 88 267 344 88 268 343 88 269 345 89 270 347 89 271 348 89 272 350 90 273 352 90 274 349 90 275 357 91 276 355 91 277 354 91 278 359 92 279 361 92 280 360 92 281 366 93 282 364 93 283 363 93 284 368 94 285 370 94 286 367 94 287 374 95 288 372 95 289 371 95 290 375 96 291 377 96 292 378 96 293 379 97 294 381 97 295 382 97 296 384 98 297 386 98 298 383 98 299 388 99 300 390 99 301 387 99 302 392 100 303 394 100 304 391 100 305 396 101 306 398 101 307 395 101 308 399 102 309 401 102 310 402 102 311 403 103 312 405 103 313 404 103 314 407 104 315 409 104 316 406 104 317 410 105 318 411 105 319 412 105 320 414 106 321 416 106 322 413 106 323 417 107 324 419 107 325 418 107 326 422 108 327 424 108 328 421 108 329 428 109 330 426 109 331 425 109 332 429 110 333 431 110 334 432 110 335 436 111 336 434 111 337 433 111 338 437 112 339 439 112 340 440 112 341 441 113 342 443 113 343 442 113 344 445 50 345 447 50 346 446 50 347 448 114 348 450 114 349 449 114 350 451 114 351 453 114 352 452 114 353 454 115 354 456 115 355 455 115 356 458 116 357 459 116 358 460 116 359 462 117 360 464 117 361 461 117 362 466 118 363 468 118 364 465 118 365 470 119 366 472 119 367 469 119 368 474 120 369 476 120 370 473 120 371 477 121 372 479 121 373 480 121 374 481 122 375 482 122 376 483 122 377 487 123 378 485 123 379 484 123 380 488 124 381 490 124 382 489 124 383 491 125 384 492 125 385 493 125 386 495 126 387 497 126 388 494 126 389 498 127 390 500 127 391 499 127 392 502 128 393 503 128 394 504 128 395 505 129 396 507 129 397 508 129 398 512 130 399 510 130 400 509 130 401 513 131 402 515 131 403 516 131 404 517 132 405 519 132 406 518 132 407 522 133 408 524 133 409 521 133 410 525 134 411 527 134 412 528 134 413 529 135 414 531 135 415 530 135 416 533 136 417 535 136 418 532 136 419 536 137 420 538 137 421 539 137 422 540 138 423 542 138 424 543 138 425 544 139 426 546 139 427 547 139 428 548 140 429 550 140 430 549 140 431 553 141 432 555 141 433 552 141 434 556 142 435 558 142 436 559 142 437 563 143 438 561 143 439 560 143 440 564 144 441 566 144 442 567 144 443 569 145 444 571 145 445 568 145 446 573 146 447 575 146 448 572 146 449 576 147 450 577 147 451 578 147 452 582 148 453 580 148 454 579 148 455 583 149 456 584 149 457 585 149 458 586 150 459 588 150 460 589 150 461 590 151 462 592 151 463 591 151 464 593 152 465 595 152 466 596 152 467 6 224 681 5 224 682 4 224 683 10 225 684 11 225 685 12 225 686 17 226 687 16 226 688 15 226 689 18 227 690 21 227 691 20 227 692 22 228 693 23 228 694 24 228 695 26 229 696 27 229 697 28 229 698 30 230 699 31 230 700 32 230 701 35 231 702 36 231 703 37 231 704 38 232 705 41 232 706 40 232 707 42 233 708 45 233 709 44 233 710 49 234 711 48 234 712 47 234 713 53 235 714 54 235 715 55 235 716 60 236 717 59 236 718 58 236 719 61 237 720 64 237 721 63 237 722 65 238 723 66 238 724 67 238 725 69 239 726 70 239 727 71 239 728 73 240 729 76 240 730 75 240 731 78 241 732 79 241 733 80 241 734 81 242 735 84 242 736 83 242 737 85 243 738 88 243 739 87 243 740 92 23 741 91 23 742 90 23 743 94 24 744 95 24 745 96 24 746 100 25 747 99 25 748 98 25 749 102 244 750 103 244 751 104 244 752 105 245 753 106 245 754 107 245 755 109 246 756 112 246 757 111 246 758 116 247 759 115 247 760 114 247 761 118 248 762 119 248 763 120 248 764 122 249 765 123 249 766 124 249 767 125 250 768 126 250 769 127 250 770 129 251 771 130 251 772 131 251 773 134 252 774 135 252 775 136 252 776 137 253 777 138 253 778 139 253 779 142 254 780 143 254 781 144 254 782 146 255 783 147 255 784 148 255 785 149 256 786 150 256 787 151 256 788 154 257 789 155 257 790 156 257 791 160 258 792 159 258 793 158 258 794 165 259 795 166 259 796 167 259 797 168 260 798 169 260 799 170 260 800 173 261 801 174 261 802 175 261 803 179 262 804 178 262 805 177 262 806 180 263 807 181 263 808 182 263 809 185 264 810 186 264 811 187 264 812 188 265 813 189 265 814 190 265 815 192 266 816 195 266 817 194 266 818 199 267 819 202 267 820 201 267 821 206 268 822 209 268 823 208 268 824 213 269 825 216 269 826 215 269 827 218 270 828 219 270 829 220 270 830 222 271 831 223 271 832 224 271 833 226 272 834 227 272 835 228 272 836 229 273 837 230 273 838 231 273 839 239 60 840 238 60 841 237 60 842 243 274 843 244 274 844 245 274 845 248 275 846 249 275 847 250 275 848 251 276 849 254 276 850 253 276 851 261 277 852 260 277 853 259 277 854 265 278 855 264 278 856 263 278 857 266 279 858 267 279 859 268 279 860 270 280 861 273 280 862 272 280 863 277 281 864 278 281 865 279 281 866 285 282 867 286 282 868 287 282 869 288 283 870 289 283 871 290 283 872 292 284 873 293 284 874 294 284 875 296 285 876 297 285 877 298 285 878 300 286 879 303 286 880 302 286 881 304 287 882 307 287 883 306 287 884 308 288 885 309 288 886 310 288 887 315 289 888 314 289 889 313 289 890 316 290 891 317 290 892 318 290 893 324 291 894 325 291 895 326 291 896 333 292 897 332 292 898 331 292 899 334 293 900 335 293 901 336 293 902 338 294 903 339 294 904 340 294 905 345 295 906 346 295 907 347 295 908 350 296 909 351 296 910 352 296 911 354 297 912 353 297 913 358 297 914 358 298 915 357 298 916 354 298 917 356 299 918 355 299 919 357 299 920 359 300 921 362 300 922 361 300 923 366 301 924 365 301 925 364 301 926 368 302 927 369 302 928 370 302 929 374 303 930 373 303 931 372 303 932 375 304 933 376 304 934 377 304 935 379 305 936 380 305 937 381 305 938 384 306 939 385 306 940 386 306 941 388 307 942 389 307 943 390 307 944 392 308 945 393 308 946 394 308 947 396 309 948 397 309 949 398 309 950 399 310 951 400 310 952 401 310 953 407 311 954 408 311 955 409 311 956 414 312 957 415 312 958 416 312 959 417 313 960 420 313 961 419 313 962 422 314 963 423 314 964 424 314 965 428 315 966 427 315 967 426 315 968 429 316 969 430 316 970 431 316 971 436 317 972 435 317 973 434 317 974 437 318 975 438 318 976 439 318 977 441 319 978 444 319 979 443 319 980 454 320 981 457 320 982 456 320 983 462 321 984 463 321 985 464 321 986 466 322 987 467 322 988 468 322 989 470 323 990 471 323 991 472 323 992 474 324 993 475 324 994 476 324 995 477 325 996 478 325 997 479 325 998 487 123 999 486 123 1000 485 123 1001 495 326 1002 496 326 1003 497 326 1004 498 327 1005 501 327 1006 500 327 1007 505 328 1008 506 328 1009 507 328 1010 512 329 1011 511 329 1012 510 329 1013 513 330 1014 514 330 1015 515 330 1016 517 331 1017 520 331 1018 519 331 1019 522 332 1020 523 332 1021 524 332 1022 525 333 1023 526 333 1024 527 333 1025 533 334 1026 534 334 1027 535 334 1028 536 335 1029 537 335 1030 538 335 1031 540 336 1032 541 336 1033 542 336 1034 544 337 1035 545 337 1036 546 337 1037 548 338 1038 551 338 1039 550 338 1040 553 339 1041 554 339 1042 555 339 1043 556 340 1044 557 340 1045 558 340 1046 563 341 1047 562 341 1048 561 341 1049 564 342 1050 565 342 1051 566 342 1052 569 343 1053 570 343 1054 571 343 1055 573 344 1056 574 344 1057 575 344 1058 582 345 1059 581 345 1060 580 345 1061 586 346 1062 587 346 1063 588 346 1064 593 347 1065 594 347 1066 595 347 1067</p>
        </polylist>
        <polylist material="middle_hair_lambert4-material" count="128">
          <input semantic="VERTEX" source="#Object_1-mesh-vertices" offset="0"/>
          <input semantic="NORMAL" source="#Object_1-mesh-normals" offset="1"/>
          <input semantic="TEXCOORD" source="#Object_1-mesh-map" offset="2" set="0"/>
          <vcount>3 3 3 3 3 3 3 3 3 3 3 3 3 3 3 3 3 3 3 3 3 3 3 3 3 3 3 3 3 3 3 3 3 3 3 3 3 3 3 3 3 3 3 3 3 3 3 3 3 3 3 3 3 3 3 3 3 3 3 3 3 3 3 3 3 3 3 3 3 3 3 3 3 3 3 3 3 3 3 3 3 3 3 3 3 3 3 3 3 3 3 3 3 3 3 3 3 3 3 3 3 3 3 3 3 3 3 3 3 3 3 3 3 3 3 3 3 3 3 3 3 3 3 3 3 3 3 3 </vcount>
          <p>597 153 468 598 153 469 599 153 470 600 154 471 602 154 472 603 154 473 605 155 474 607 155 475 604 155 476 608 156 477 610 156 478 611 156 479 612 157 480 614 157 481 615 157 482 616 158 483 617 158 484 618 158 485 619 159 486 620 159 487 621 159 488 622 160 489 623 160 490 624 160 491 625 161 492 627 161 493 628 161 494 630 162 495 632 162 496 629 162 497 634 163 498 636 163 499 633 163 500 637 164 501 639 164 502 640 164 503 641 165 504 643 165 505 644 165 506 645 166 507 646 166 508 647 166 509 648 167 510 649 167 511 650 167 512 651 168 513 652 168 514 653 168 515 654 169 516 656 169 517 657 169 518 659 170 519 661 170 520 658 170 521 662 171 522 664 171 523 665 171 524 666 172 525 668 172 526 669 172 527 671 173 528 673 173 529 670 173 530 674 174 531 676 174 532 677 174 533 678 175 534 680 175 535 681 175 536 683 176 537 685 176 538 682 176 539 686 177 540 688 177 541 689 177 542 690 178 543 692 178 544 693 178 545 694 179 546 696 179 547 697 179 548 698 180 549 700 180 550 701 180 551 702 181 552 704 181 553 705 181 554 706 182 555 708 182 556 709 182 557 710 183 558 712 183 559 713 183 560 715 184 561 717 184 562 714 184 563 718 185 564 720 185 565 721 185 566 722 186 567 724 186 568 725 186 569 726 187 570 728 187 571 729 187 572 730 188 573 732 188 574 733 188 575 734 189 576 736 189 577 737 189 578 738 190 579 740 190 580 741 190 581 743 191 582 745 191 583 742 191 584 747 192 585 749 192 586 746 192 587 750 193 588 752 193 589 753 193 590 754 194 591 756 194 592 757 194 593 758 195 594 760 195 595 761 195 596 762 196 597 764 196 598 765 196 599 766 197 600 768 197 601 769 197 602 770 198 603 772 198 604 773 198 605 775 199 606 777 199 607 774 199 608 778 200 609 780 200 610 781 200 611 783 201 612 785 201 613 782 201 614 787 202 615 789 202 616 786 202 617 790 203 618 792 203 619 793 203 620 795 204 621 797 204 622 794 204 623 798 205 624 800 205 625 801 205 626 802 206 627 804 206 628 805 206 629 807 207 630 809 207 631 806 207 632 811 208 633 813 208 634 810 208 635 814 209 636 816 209 637 817 209 638 819 210 639 821 210 640 818 210 641 822 211 642 824 211 643 825 211 644 827 212 645 829 212 646 826 212 647 830 213 648 831 213 649 832 213 650 833 214 651 834 214 652 835 214 653 836 215 654 837 215 655 838 215 656 839 216 657 840 216 658 841 216 659 843 217 660 845 217 661 842 217 662 847 218 663 849 218 664 846 218 665 850 219 666 852 219 667 853 219 668 855 220 669 857 220 670 854 220 671 858 221 672 859 221 673 860 221 674 861 222 675 862 222 676 863 222 677 864 223 678 865 223 679 866 223 680 600 348 1068 601 348 1069 602 348 1070 605 349 1071 606 349 1072 607 349 1073 608 350 1074 609 350 1075 610 350 1076 612 351 1077 613 351 1078 614 351 1079 625 352 1080 626 352 1081 627 352 1082 630 353 1083 631 353 1084 632 353 1085 634 354 1086 635 354 1087 636 354 1088 637 355 1089 638 355 1090 639 355 1091 641 356 1092 642 356 1093 643 356 1094 654 357 1095 655 357 1096 656 357 1097 659 358 1098 660 358 1099 661 358 1100 662 359 1101 663 359 1102 664 359 1103 666 360 1104 667 360 1105 668 360 1106 671 361 1107 672 361 1108 673 361 1109 674 362 1110 675 362 1111 676 362 1112 678 363 1113 679 363 1114 680 363 1115 683 364 1116 684 364 1117 685 364 1118 686 365 1119 687 365 1120 688 365 1121 690 366 1122 691 366 1123 692 366 1124 694 367 1125 695 367 1126 696 367 1127 698 368 1128 699 368 1129 700 368 1130 702 369 1131 703 369 1132 704 369 1133 706 370 1134 707 370 1135 708 370 1136 710 371 1137 711 371 1138 712 371 1139 715 372 1140 716 372 1141 717 372 1142 718 373 1143 719 373 1144 720 373 1145 722 374 1146 723 374 1147 724 374 1148 726 375 1149 727 375 1150 728 375 1151 730 376 1152 731 376 1153 732 376 1154 734 377 1155 735 377 1156 736 377 1157 738 378 1158 739 378 1159 740 378 1160 743 379 1161 744 379 1162 745 379 1163 747 380 1164 748 380 1165 749 380 1166 750 381 1167 751 381 1168 752 381 1169 754 382 1170 755 382 1171 756 382 1172 758 383 1173 759 383 1174 760 383 1175 762 384 1176 763 384 1177 764 384 1178 766 385 1179 767 385 1180 768 385 1181 770 386 1182 771 386 1183 772 386 1184 775 387 1185 776 387 1186 777 387 1187 778 388 1188 779 388 1189 780 388 1190 783 389 1191 784 389 1192 785 389 1193 787 390 1194 788 390 1195 789 390 1196 790 391 1197 791 391 1198 792 391 1199 795 392 1200 796 392 1201 797 392 1202 798 393 1203 799 393 1204 800 393 1205 802 394 1206 803 394 1207 804 394 1208 807 395 1209 808 395 1210 809 395 1211 811 396 1212 812 396 1213 813 396 1214 814 397 1215 815 397 1216 816 397 1217 819 398 1218 820 398 1219 821 398 1220 822 399 1221 823 399 1222 824 399 1223 827 400 1224 828 400 1225 829 400 1226 843 401 1227 844 401 1228 845 401 1229 847 402 1230 848 402 1231 849 402 1232 850 403 1233 851 403 1234 852 403 1235 855 404 1236 856 404 1237 857 404 1238</p>
        </polylist>
      </mesh>
    </geometry>
  </library_geometries>
  <library_visual_scenes>
    <visual_scene id="Scene" name="Scene">
      <node id="Object_1" name="Object_1" type="NODE">
        <matrix sid="transform">1 0 0 0 0 -1.62921e-7 -1 0 0 1 -1.62921e-7 1.013501 0 0 0 1</matrix>
        <instance_geometry url="#Object_1-mesh" name="Object_1">
          <bind_material>
            <technique_common>
              <instance_material symbol="cute_keeper_27_without_hair_lambert3-material" target="#cute_keeper_27_without_hair_lambert3-material">
                <bind_vertex_input semantic="UVMap" input_semantic="TEXCOORD" input_set="0"/>
              </instance_material>
              <instance_material symbol="middle_hair_lambert4-material" target="#middle_hair_lambert4-material">
                <bind_vertex_input semantic="UVMap" input_semantic="TEXCOORD" input_set="0"/>
              </instance_material>
            </technique_common>
          </bind_material>
        </instance_geometry>
      </node>
    </visual_scene>
  </library_visual_scenes>
  <scene>
    <instance_visual_scene url="#Scene"/>
  </scene>
</COLLADA>